cpu/wave.vcd
$date
	Thu Oct 23 19:21:40 2025
$end
$version
	Icarus Verilog
$end
$timescale
	1s
$end
$scope module top_tb $end
$var wire 7 ! seg [6:0] $end
$var wire 16 " leds_out [15:0] $end
$var wire 1 # dp $end
$var wire 8 $ an [7:0] $end
$var reg 1 % button $end
$var reg 1 & clk $end
$var reg 1 ' rst $end
$var reg 16 ( sw [15:0] $end
$scope module top $end
$var wire 1 % button $end
$var wire 1 & clk $end
$var wire 1 ' rst $end
$var wire 16 ) sw [15:0] $end
$var wire 7 * seg [6:0] $end
$var wire 1 + reset $end
$var wire 32 , reg_data_2 [31:0] $end
$var wire 32 - reg_data_1 [31:0] $end
$var wire 5 . rd [4:0] $end
$var wire 32 / pc [31:0] $end
$var wire 1 0 mem_write $end
$var wire 16 1 leds_out [15:0] $end
$var wire 32 2 instr [31:0] $end
$var wire 1 # dp $end
$var wire 32 3 data_out [31:0] $end
$var wire 4 4 cs [3:0] $end
$var wire 8 5 an [7:0] $end
$var wire 32 6 alu_result [31:0] $end
$var wire 1 7 Pc_src $end
$scope module ieu $end
$var wire 1 & clk $end
$var wire 5 8 rs2 [4:0] $end
$var wire 5 9 rs1 [4:0] $end
$var wire 2 : result_src [1:0] $end
$var wire 1 ; reg_write $end
$var wire 32 < reg_data_2 [31:0] $end
$var wire 32 = reg_data_1 [31:0] $end
$var wire 5 > rd [4:0] $end
$var wire 1 7 pc_src $end
$var wire 32 ? pc [31:0] $end
$var wire 7 @ opcode [6:0] $end
$var wire 1 0 mem_write $end
$var wire 32 A mem_data [31:0] $end
$var wire 32 B instr [31:0] $end
$var wire 3 C imm_src [2:0] $end
$var wire 32 D imm_ext [31:0] $end
$var wire 7 E funct7 [6:0] $end
$var wire 3 F funct3 [2:0] $end
$var wire 1 G flags $end
$var wire 4 H cs [3:0] $end
$var wire 2 I alu_src [1:0] $end
$var wire 1 J alu_result_src $end
$var wire 32 K alu_result [31:0] $end
$var wire 2 L alu_control [1:0] $end
$var reg 32 M alu_src_a [31:0] $end
$var reg 32 N alu_src_b [31:0] $end
$var reg 32 O ieu_result [31:0] $end
$var reg 32 P result [31:0] $end
$scope module alu_unit $end
$var wire 32 Q a [31:0] $end
$var wire 32 R b [31:0] $end
$var wire 3 S funct3 [2:0] $end
$var wire 2 T alu_control [1:0] $end
$var reg 32 U alu_result [31:0] $end
$upscope $end
$scope module comparer $end
$var wire 3 V funct3 [2:0] $end
$var wire 32 W r2 [31:0] $end
$var wire 32 X r1 [31:0] $end
$var reg 1 G eq $end
$upscope $end
$scope module control $end
$var wire 1 G flags $end
$var wire 3 Y funct3 [2:0] $end
$var wire 7 Z funct7 [6:0] $end
$var wire 7 [ opcode [6:0] $end
$var reg 2 \ alu_control [1:0] $end
$var reg 1 J alu_result_src $end
$var reg 2 ] alu_src [1:0] $end
$var reg 4 ^ cs [3:0] $end
$var reg 3 _ imm_src [2:0] $end
$var reg 1 0 mem_write $end
$var reg 1 7 pc_src $end
$var reg 1 ; reg_write $end
$var reg 2 ` result_src [1:0] $end
$upscope $end
$scope module reg_file $end
$var wire 1 & clk $end
$var wire 5 a ra1 [4:0] $end
$var wire 5 b ra2 [4:0] $end
$var wire 5 c wa [4:0] $end
$var wire 32 d wd [31:0] $end
$var wire 1 ; we $end
$var wire 32 e rd2 [31:0] $end
$var wire 32 f rd1 [31:0] $end
$upscope $end
$scope module sign_ext $end
$var wire 3 g imm_src [2:0] $end
$var wire 32 h instr [31:0] $end
$var reg 32 i imm_ext [31:0] $end
$upscope $end
$scope begin Mux_alu_src_a $end
$upscope $end
$scope begin Mux_alu_src_b $end
$upscope $end
$scope begin Mux_result $end
$upscope $end
$scope begin Mux_write_reg $end
$upscope $end
$upscope $end
$scope module ifu $end
$var wire 1 7 Pc_src $end
$var wire 32 j alu_result [31:0] $end
$var wire 1 & clk $end
$var wire 32 k pc [31:0] $end
$var wire 1 + reset $end
$var wire 32 l instr [31:0] $end
$var reg 32 m pc_next [31:0] $end
$scope module instruction_rom $end
$var wire 8 n address [7:0] $end
$var wire 32 o data [31:0] $end
$scope begin $ivl_for_loop2 $end
$var integer 32 p i [31:0] $end
$upscope $end
$upscope $end
$scope begin Pc_update $end
$upscope $end
$upscope $end
$scope module ios $end
$var wire 32 q alu_result [31:0] $end
$var wire 1 & clk $end
$var wire 4 r cs [3:0] $end
$var wire 3 s funct3 [2:0] $end
$var wire 1 0 mem_write $end
$var wire 32 t reg_data_2 [31:0] $end
$var wire 16 u sw [15:0] $end
$var wire 1 v w_enable_data_mem $end
$var wire 7 w seg [6:0] $end
$var wire 1 + rst $end
$var wire 8 x mem_data_3 [7:0] $end
$var wire 8 y mem_data_2 [7:0] $end
$var wire 8 z mem_data_1 [7:0] $end
$var wire 8 { mem_data_0 [7:0] $end
$var wire 16 | leds_out [15:0] $end
$var wire 4 } io_enable [3:0] $end
$var wire 1 # dp $end
$var wire 16 ~ decoded_switches [15:0] $end
$var wire 32 !" data_mem [31:0] $end
$var wire 16 "" data_leds [15:0] $end
$var wire 32 #" data_7seg [31:0] $end
$var wire 4 $" cs_out [3:0] $end
$var wire 8 %" an [7:0] $end
$var reg 32 &" data_out [31:0] $end
$var reg 32 '" mem_data_out [31:0] $end
$scope module io_controler_instance $end
$var wire 6 (" addr [5:0] $end
$var wire 4 )" cs_in [3:0] $end
$var wire 32 *" data_in [31:0] $end
$var wire 1 0 w_enable $end
$var reg 4 +" cs_out [3:0] $end
$var reg 32 ," data_7seg [31:0] $end
$var reg 16 -" data_leds [15:0] $end
$var reg 32 ." data_mem [31:0] $end
$var reg 4 /" io_enable [3:0] $end
$var reg 1 v w_enable_data_mem $end
$upscope $end
$scope module leds_instance $end
$var wire 1 & clk $end
$var wire 16 0" data [15:0] $end
$var wire 1 1" en $end
$var wire 16 2" leds_out [15:0] $end
$var wire 1 + rst $end
$var reg 16 3" leds_next [15:0] $end
$upscope $end
$scope module segmented_memory_instance $end
$var wire 5 4" addr [4:0] $end
$var wire 1 & clk $end
$var wire 4 5" cs [3:0] $end
$var wire 32 6" data [31:0] $end
$var wire 1 v mem_write $end
$var wire 8 7" mem_data_3 [7:0] $end
$var wire 8 8" mem_data_2 [7:0] $end
$var wire 8 9" mem_data_1 [7:0] $end
$var wire 8 :" mem_data_0 [7:0] $end
$scope module mem0 $end
$var wire 5 ;" addr [4:0] $end
$var wire 1 & clk $end
$var wire 1 <" cs $end
$var wire 8 =" wd [7:0] $end
$var wire 1 v we $end
$var wire 8 >" rd [7:0] $end
$var parameter 32 ?" WIDTH $end
$scope begin $ivl_for_loop3 $end
$var integer 32 @" i [31:0] $end
$upscope $end
$upscope $end
$scope module mem1 $end
$var wire 5 A" addr [4:0] $end
$var wire 1 & clk $end
$var wire 1 B" cs $end
$var wire 8 C" wd [7:0] $end
$var wire 1 v we $end
$var wire 8 D" rd [7:0] $end
$var parameter 32 E" WIDTH $end
$scope begin $ivl_for_loop3 $end
$var integer 32 F" i [31:0] $end
$upscope $end
$upscope $end
$scope module mem2 $end
$var wire 5 G" addr [4:0] $end
$var wire 1 & clk $end
$var wire 1 H" cs $end
$var wire 8 I" wd [7:0] $end
$var wire 1 v we $end
$var wire 8 J" rd [7:0] $end
$var parameter 32 K" WIDTH $end
$scope begin $ivl_for_loop3 $end
$var integer 32 L" i [31:0] $end
$upscope $end
$upscope $end
$scope module mem3 $end
$var wire 5 M" addr [4:0] $end
$var wire 1 & clk $end
$var wire 1 N" cs $end
$var wire 8 O" wd [7:0] $end
$var wire 1 v we $end
$var wire 8 P" rd [7:0] $end
$var parameter 32 Q" WIDTH $end
$scope begin $ivl_for_loop3 $end
$var integer 32 R" i [31:0] $end
$upscope $end
$upscope $end
$upscope $end
$scope module sevenseg_instance $end
$var wire 1 & clk $end
$var wire 32 S" digits [31:0] $end
$var wire 1 T" en $end
$var wire 1 U" seg_refresh $end
$var wire 7 V" seg [6:0] $end
$var wire 1 + rst $end
$var wire 8 W" an [7:0] $end
$var parameter 19 X" MAX_VALUE_refresh $end
$var parameter 32 Y" N_DIG $end
$var parameter 32 Z" N_refresh $end
$var reg 1 # dp $end
$scope begin decoders[0] $end
$var parameter 2 [" j $end
$scope module u_dec $end
$var wire 4 \" bin_in [3:0] $end
$var reg 7 ]" seg_dec [6:0] $end
$upscope $end
$upscope $end
$scope begin decoders[1] $end
$var parameter 2 ^" j $end
$scope module u_dec $end
$var wire 4 _" bin_in [3:0] $end
$var reg 7 `" seg_dec [6:0] $end
$upscope $end
$upscope $end
$scope begin decoders[2] $end
$var parameter 3 a" j $end
$scope module u_dec $end
$var wire 4 b" bin_in [3:0] $end
$var reg 7 c" seg_dec [6:0] $end
$upscope $end
$upscope $end
$scope begin decoders[3] $end
$var parameter 3 d" j $end
$scope module u_dec $end
$var wire 4 e" bin_in [3:0] $end
$var reg 7 f" seg_dec [6:0] $end
$upscope $end
$upscope $end
$scope begin decoders[4] $end
$var parameter 4 g" j $end
$scope module u_dec $end
$var wire 4 h" bin_in [3:0] $end
$var reg 7 i" seg_dec [6:0] $end
$upscope $end
$upscope $end
$scope begin decoders[5] $end
$var parameter 4 j" j $end
$scope module u_dec $end
$var wire 4 k" bin_in [3:0] $end
$var reg 7 l" seg_dec [6:0] $end
$upscope $end
$upscope $end
$scope begin decoders[6] $end
$var parameter 4 m" j $end
$scope module u_dec $end
$var wire 4 n" bin_in [3:0] $end
$var reg 7 o" seg_dec [6:0] $end
$upscope $end
$upscope $end
$scope begin decoders[7] $end
$var parameter 4 p" j $end
$scope module u_dec $end
$var wire 4 q" bin_in [3:0] $end
$var reg 7 r" seg_dec [6:0] $end
$upscope $end
$upscope $end
$scope module freq_div_refresh $end
$var wire 1 & clk $end
$var wire 1 s" en $end
$var wire 1 U" pulse $end
$var wire 1 t" up $end
$var wire 1 + rst_n $end
$var parameter 32 u" MAX $end
$var parameter 32 v" N $end
$var reg 19 w" count [18:0] $end
$upscope $end
$scope module u_mux $end
$var wire 1 & clk $end
$var wire 1 U" en $end
$var wire 1 + reset $end
$var parameter 32 x" N $end
$var reg 8 y" an [7:0] $end
$var reg 8 z" dig [7:0] $end
$var reg 3 {" digit_index [2:0] $end
$var reg 7 |" seg [6:0] $end
$var reg 7 }" seg_out [6:0] $end
$upscope $end
$scope begin ALLOWED_DATA $end
$scope begin $ivl_for_loop1 $end
$var integer 32 ~" i [31:0] $end
$upscope $end
$upscope $end
$scope begin DP $end
$upscope $end
$scope begin NEXT_DATA $end
$scope begin $ivl_for_loop0 $end
$var integer 32 !# i [31:0] $end
$upscope $end
$upscope $end
$upscope $end
$scope module switches_instance $end
$var wire 16 "# decoded_switches [15:0] $end
$var wire 16 ## sw [15:0] $end
$upscope $end
$scope begin MUX_DATA_READ $end
$upscope $end
$upscope $end
$scope module u_debouncer $end
$var wire 1 & clk $end
$var wire 1 % noisy_in $end
$var wire 1 ' rst $end
$var wire 4 $# sample [3:0] $end
$var wire 1 + clean_out $end
$var parameter 32 %# SAMPLES $end
$var parameter 32 &# WIDTH $end
$scope begin ff_chain[0] $end
$var parameter 2 '# i $end
$scope module ff_inst $end
$var wire 1 & clk $end
$var wire 1 (# d $end
$var wire 1 ' rst $end
$var parameter 32 )# WIDTH $end
$var reg 1 *# q $end
$upscope $end
$upscope $end
$scope begin ff_chain[1] $end
$var parameter 2 +# i $end
$scope module ff_inst $end
$var wire 1 & clk $end
$var wire 1 ,# d $end
$var wire 1 ' rst $end
$var parameter 32 -# WIDTH $end
$var reg 1 .# q $end
$upscope $end
$upscope $end
$scope begin ff_chain[2] $end
$var parameter 3 /# i $end
$scope module ff_inst $end
$var wire 1 & clk $end
$var wire 1 0# d $end
$var wire 1 ' rst $end
$var parameter 32 1# WIDTH $end
$var reg 1 2# q $end
$upscope $end
$upscope $end
$upscope $end
$upscope $end
$upscope $end
$enddefinitions $end
$comment Show the parameter values. $end
$dumpall
b1 1#
b10 /#
b1 -#
b1 +#
b1 )#
b0 '#
b1 &#
b11 %#
b1000 x"
b10011 v"
b1000000000000000000 u"
b111 p"
b110 m"
b101 j"
b100 g"
b11 d"
b10 a"
b1 ^"
b0 ["
b10011 Z"
b1000 Y"
b1000000000000000000 X"
b1000 Q"
b1000 K"
b1000 E"
b1000 ?"
$end
#0
$dumpvars
x2#
x0#
x.#
x,#
x*#
0(#
bx0 $#
bx ##
bx "#
b0 !#
b1000 ~"
bx }"
bx |"
bx {"
bx z"
bx y"
bx w"
1t"
1s"
b1000000 r"
bx q"
b1000000 o"
bx n"
b1000000 l"
bx k"
b1000000 i"
bx h"
b1000000 f"
bx e"
b1000000 c"
bx b"
b1000000 `"
bx _"
b1000000 ]"
bx \"
bx W"
bx V"
xU"
0T"
bx S"
b100000 R"
b0 P"
bx O"
0N"
bx M"
b100000 L"
b0 J"
bx I"
0H"
bx G"
b100000 F"
b0 D"
bx C"
0B"
bx A"
b100000 @"
b0 >"
bx ="
0<"
bx ;"
b0 :"
b0 9"
b0 8"
b0 7"
bx 6"
b0 5"
bx 4"
bx 3"
bx 2"
01"
bx 0"
b0 /"
bx ."
bx -"
bx ,"
b0 +"
bx *"
b0 )"
bx ("
b0 '"
b0 &"
bx %"
b0 $"
bx #"
bx ""
bx !"
bx ~
b0 }
bx |
b0 {
b0 z
b0 y
b0 x
bx w
0v
bx u
bx t
bx s
b0 r
bx q
b100000000 p
bx o
bx n
bx m
bx l
bx k
bx j
bx i
bx h
b0 g
bx f
bx e
bx d
bx c
bx b
bx a
b0 `
b0 _
b0 ^
b0 ]
b0 \
bx [
bx Z
bx Y
bx X
bx W
bx V
bx U
b0 T
bx S
bx R
bx Q
bx P
bx O
bx N
bx M
b0 L
bx K
0J
b0 I
b0 H
0G
bx F
bx E
bx D
b0 C
bx B
b0 A
bx @
bx ?
bx >
bx =
bx <
0;
b0 :
bx 9
bx 8
07
bx 6
bx 5
b0 4
b0 3
bx 2
bx 1
00
bx /
bx .
bx -
bx ,
0+
bx *
bx )
bx (
1'
0&
0%
bx $
1#
bx "
bx !
$end
#5
0,#
00#
0*#
0.#
b0 $#
02#
1&
#7
1(#
b1 $#
1%
0'
#10
0&
#15
1,#
b11 $#
1*#
1&
#20
0&
#25
10#
b111 $#
1.#
1&
#30
0&
#35
b0 P
b0 d
b0 ("
b0 4"
b0 ;"
b0 A"
b0 G"
b0 M"
b0 O
b0 ="
b0 C"
b0 I"
b0 O"
b0 6
b0 K
b0 U
b0 j
b0 q
b0 #"
b0 ,"
b0 S"
b0 !"
b0 ."
b0 6"
b0 ""
b0 -"
b0 0"
b0 N
b0 R
b0 M
b0 Q
b0 ,
b0 <
b0 W
b0 e
b0 t
b0 *"
b0 -
b0 =
b0 X
b0 f
1G
b1 I
b1 ]
1;
b0 E
b0 Z
b0 8
b0 b
b0 9
b0 a
b0 F
b0 S
b0 V
b0 Y
b101 .
b101 >
b101 c
b10011 @
b10011 [
b0 s
b0 D
b0 i
b1010010011 2
b1010010011 B
b1010010011 h
b1010010011 l
b1010010011 o
b0 n
b0 /
b0 ?
b0 k
b0 m
1+
b1111 $#
12#
1&
#40
0&
#45
0U"
b11111111 $
b11111111 5
b11111111 %"
b11111111 W"
b11111111 y"
b1111111 !
b1111111 *
b1111111 w
b1111111 V"
b1111111 }"
b0 w"
b11111111 z"
b1111111 |"
b0 {"
b0 "
b0 1
b0 |
b0 2"
b0 3"
0(#
b111111100111001 ~
b111111100111001 "#
b111111100111001 (
b111111100111001 )
b111111100111001 u
b111111100111001 ##
0+
b1110 $#
0%
1&
#50
0&
#55
b111111100111001 P
b111111100111001 d
b111111100111001 3
b111111100111001 A
b111111100111001 &"
b10 }
b10 /"
0<"
0B"
0H"
0N"
b100001 ("
b1 4"
b1 ;"
b1 A"
b1 G"
b1 M"
b100001 O
b0 $"
b0 +"
b0 5"
b100001 6
b100001 K
b100001 U
b100001 j
b100001 q
0G
b1111 4
b1111 H
b1111 ^
b1111 r
b1111 )"
b1 :
b1 `
b100001 N
b100001 R
b1 E
b1 Z
b1 8
b1 b
b10 F
b10 S
b10 V
b10 Y
b11 @
b11 [
b10 s
b100001 D
b100001 i
b11111110 $
b11111110 5
b11111110 %"
b11111110 W"
b11111110 y"
b1000000 !
b1000000 *
b1000000 w
b1000000 V"
b1000000 }"
0,#
b10000100000010001010000011 2
b10000100000010001010000011 B
b10000100000010001010000011 h
b10000100000010001010000011 l
b10000100000010001010000011 o
b1 n
b11111110 z"
b1000000 |"
b1 w"
b1100 $#
0*#
b100 /
b100 ?
b100 k
b100 m
1&
#60
0&
#65
1T"
b0 3
b0 A
b0 &"
b111001 ="
b1111111 C"
b100011 ("
b11 4"
b11 ;"
b11 A"
b11 G"
b11 M"
b100011 O
b100011 P
b100011 d
b111111100111001 #"
b111111100111001 ,"
b111111100111001 S"
b111111100111001 !"
b111111100111001 ."
b111111100111001 6"
b111111100111001 ""
b111111100111001 -"
b111111100111001 0"
b1000 }
b1000 /"
b100011 6
b100011 K
b100011 U
b100011 j
b100011 q
b111111100111001 ,
b111111100111001 <
b111111100111001 W
b111111100111001 e
b111111100111001 t
b111111100111001 *"
b1 C
b1 _
b1 g
b0 :
b0 `
10
0;
b100011 N
b100011 R
b101 8
b101 b
b11 .
b11 >
b11 c
b100011 @
b100011 [
b100011 D
b100011 i
00#
b10010100000010000110100011 2
b10010100000010000110100011 B
b10010100000010000110100011 h
b10010100000010000110100011 l
b10010100000010000110100011 o
b10 n
b1000 $#
0.#
b10 w"
b1000 /
b1000 ?
b1000 k
b1000 m
1&
#70
0&
#75
b10000 P
b10000 d
b0 ="
b0 C"
0T"
1G
b100 ("
b100 4"
b100 ;"
b100 A"
b100 G"
b100 M"
b10000 O
b0 #"
b0 ,"
b0 S"
b0 !"
b0 ."
b0 6"
b0 ""
b0 -"
b0 0"
b0 }
b0 /"
b10000 M
b10000 Q
b0 ,
b0 <
b0 W
b0 e
b0 t
b0 *"
b100 6
b100 K
b100 U
b100 j
b100 q
b0 4
b0 H
b0 ^
b0 r
b0 )"
b11 C
b11 _
b11 g
1J
17
00
b11 I
b11 ]
1;
b11111111111111111111111111110100 N
b11111111111111111111111111110100 R
b1111000 f"
b1110 c"
b110000 `"
b10000 ]"
b1111111 E
b1111111 Z
b10101 8
b10101 b
b11111 9
b11111 a
b111 F
b111 S
b111 V
b111 Y
b110 .
b110 >
b110 c
b1101111 @
b1101111 [
b111 s
b11111111111111111111111111110100 D
b11111111111111111111111111110100 i
b0 q"
b0 n"
b0 k"
b0 h"
b111 e"
b1111 b"
b11 _"
b1001 \"
b1000 ~"
b11111111010111111111001101101111 2
b11111111010111111111001101101111 B
b11111111010111111111001101101111 h
b11111111010111111111001101101111 l
b11111111010111111111001101101111 o
b11 n
b11 w"
b0 $#
02#
b1100 /
b1100 ?
b1100 k
b1100 m
1&
#80
0&
#85
b111111100111001 3
b111111100111001 A
b111111100111001 &"
b10 }
b10 /"
0G
b1111 4
b1111 H
b1111 ^
b1111 r
b1111 )"
b0 C
b0 _
b0 g
0J
07
b1 :
b1 `
b1 I
b1 ]
b100001 N
b100001 R
b100001 ("
b1 4"
b1 ;"
b1 A"
b1 G"
b1 M"
b1 E
b1 Z
b1 8
b1 b
b0 9
b0 a
b10 F
b10 S
b10 V
b10 Y
b101 .
b101 >
b101 c
b11 @
b11 [
b10 s
b100001 D
b100001 i
b111111100111001 P
b111111100111001 d
b100001 6
b100001 K
b100001 U
b100001 j
b100001 q
b10000 !
b10000 *
b10000 w
b10000 V"
b10000 }"
b10000100000010001010000011 2
b10000100000010001010000011 B
b10000100000010001010000011 h
b10000100000010001010000011 l
b10000100000010001010000011 o
b1 n
b100001 O
b0 M
b0 Q
b100 w"
b10000 |"
b100 /
b100 ?
b100 k
b100 m
1&
#90
0&
#95
1T"
b0 3
b0 A
b0 &"
b111001 ="
b1111111 C"
b100011 ("
b11 4"
b11 ;"
b11 A"
b11 G"
b11 M"
b100011 O
b100011 P
b100011 d
b111111100111001 #"
b111111100111001 ,"
b111111100111001 S"
b111111100111001 !"
b111111100111001 ."
b111111100111001 6"
b111111100111001 ""
b111111100111001 -"
b111111100111001 0"
b1000 }
b1000 /"
b100011 6
b100011 K
b100011 U
b100011 j
b100011 q
b111111100111001 ,
b111111100111001 <
b111111100111001 W
b111111100111001 e
b111111100111001 t
b111111100111001 *"
b1 C
b1 _
b1 g
b0 :
b0 `
10
0;
b100011 N
b100011 R
b101 8
b101 b
b11 .
b11 >
b11 c
b100011 @
b100011 [
b100011 D
b100011 i
b10010100000010000110100011 2
b10010100000010000110100011 B
b10010100000010000110100011 h
b10010100000010000110100011 l
b10010100000010000110100011 o
b10 n
b101 w"
b1000 /
b1000 ?
b1000 k
b1000 m
1&
#100
0&
#105
b10000 P
b10000 d
b0 ="
b0 C"
0T"
1G
b100 ("
b100 4"
b100 ;"
b100 A"
b100 G"
b100 M"
b10000 O
b0 #"
b0 ,"
b0 S"
b0 !"
b0 ."
b0 6"
b0 ""
b0 -"
b0 0"
b0 }
b0 /"
b10000 M
b10000 Q
b0 ,
b0 <
b0 W
b0 e
b0 t
b0 *"
b100 6
b100 K
b100 U
b100 j
b100 q
b0 4
b0 H
b0 ^
b0 r
b0 )"
b11 C
b11 _
b11 g
1J
17
00
b11 I
b11 ]
1;
b11111111111111111111111111110100 N
b11111111111111111111111111110100 R
b1111111 E
b1111111 Z
b10101 8
b10101 b
b11111 9
b11111 a
b111 F
b111 S
b111 V
b111 Y
b110 .
b110 >
b110 c
b1101111 @
b1101111 [
b111 s
b11111111111111111111111111110100 D
b11111111111111111111111111110100 i
b11111111010111111111001101101111 2
b11111111010111111111001101101111 B
b11111111010111111111001101101111 h
b11111111010111111111001101101111 l
b11111111010111111111001101101111 o
b11 n
b110 w"
b1100 /
b1100 ?
b1100 k
b1100 m
1&
#110
0&
#115
b111111100111001 3
b111111100111001 A
b111111100111001 &"
b10 }
b10 /"
0G
b1111 4
b1111 H
b1111 ^
b1111 r
b1111 )"
b0 C
b0 _
b0 g
0J
07
b1 :
b1 `
b1 I
b1 ]
b100001 N
b100001 R
b100001 ("
b1 4"
b1 ;"
b1 A"
b1 G"
b1 M"
b1 E
b1 Z
b1 8
b1 b
b0 9
b0 a
b10 F
b10 S
b10 V
b10 Y
b101 .
b101 >
b101 c
b11 @
b11 [
b10 s
b100001 D
b100001 i
b111111100111001 P
b111111100111001 d
b100001 6
b100001 K
b100001 U
b100001 j
b100001 q
b10000100000010001010000011 2
b10000100000010001010000011 B
b10000100000010001010000011 h
b10000100000010001010000011 l
b10000100000010001010000011 o
b1 n
b100001 O
b0 M
b0 Q
b111 w"
b100 /
b100 ?
b100 k
b100 m
1&
#120
0&
#125
1T"
b0 3
b0 A
b0 &"
b111001 ="
b1111111 C"
b100011 ("
b11 4"
b11 ;"
b11 A"
b11 G"
b11 M"
b100011 O
b100011 P
b100011 d
b111111100111001 #"
b111111100111001 ,"
b111111100111001 S"
b111111100111001 !"
b111111100111001 ."
b111111100111001 6"
b111111100111001 ""
b111111100111001 -"
b111111100111001 0"
b1000 }
b1000 /"
b100011 6
b100011 K
b100011 U
b100011 j
b100011 q
b111111100111001 ,
b111111100111001 <
b111111100111001 W
b111111100111001 e
b111111100111001 t
b111111100111001 *"
b1 C
b1 _
b1 g
b0 :
b0 `
10
0;
b100011 N
b100011 R
b101 8
b101 b
b11 .
b11 >
b11 c
b100011 @
b100011 [
b100011 D
b100011 i
b10010100000010000110100011 2
b10010100000010000110100011 B
b10010100000010000110100011 h
b10010100000010000110100011 l
b10010100000010000110100011 o
b10 n
b1000 w"
b1000 /
b1000 ?
b1000 k
b1000 m
1&
#130
0&
#135
b10000 P
b10000 d
b0 ="
b0 C"
0T"
1G
b100 ("
b100 4"
b100 ;"
b100 A"
b100 G"
b100 M"
b10000 O
b0 #"
b0 ,"
b0 S"
b0 !"
b0 ."
b0 6"
b0 ""
b0 -"
b0 0"
b0 }
b0 /"
b10000 M
b10000 Q
b0 ,
b0 <
b0 W
b0 e
b0 t
b0 *"
b100 6
b100 K
b100 U
b100 j
b100 q
b0 4
b0 H
b0 ^
b0 r
b0 )"
b11 C
b11 _
b11 g
1J
17
00
b11 I
b11 ]
1;
b11111111111111111111111111110100 N
b11111111111111111111111111110100 R
b1111111 E
b1111111 Z
b10101 8
b10101 b
b11111 9
b11111 a
b111 F
b111 S
b111 V
b111 Y
b110 .
b110 >
b110 c
b1101111 @
b1101111 [
b111 s
b11111111111111111111111111110100 D
b11111111111111111111111111110100 i
b11111111010111111111001101101111 2
b11111111010111111111001101101111 B
b11111111010111111111001101101111 h
b11111111010111111111001101101111 l
b11111111010111111111001101101111 o
b11 n
b1001 w"
b1100 /
b1100 ?
b1100 k
b1100 m
1&
#140
0&
#145
b111111100111001 3
b111111100111001 A
b111111100111001 &"
b10 }
b10 /"
0G
b1111 4
b1111 H
b1111 ^
b1111 r
b1111 )"
b0 C
b0 _
b0 g
0J
07
b1 :
b1 `
b1 I
b1 ]
b100001 N
b100001 R
b100001 ("
b1 4"
b1 ;"
b1 A"
b1 G"
b1 M"
b1 E
b1 Z
b1 8
b1 b
b0 9
b0 a
b10 F
b10 S
b10 V
b10 Y
b101 .
b101 >
b101 c
b11 @
b11 [
b10 s
b100001 D
b100001 i
b111111100111001 P
b111111100111001 d
b100001 6
b100001 K
b100001 U
b100001 j
b100001 q
b10000100000010001010000011 2
b10000100000010001010000011 B
b10000100000010001010000011 h
b10000100000010001010000011 l
b10000100000010001010000011 o
b1 n
b100001 O
b0 M
b0 Q
b1010 w"
b100 /
b100 ?
b100 k
b100 m
1&
#150
0&
#155
1T"
b0 3
b0 A
b0 &"
b111001 ="
b1111111 C"
b100011 ("
b11 4"
b11 ;"
b11 A"
b11 G"
b11 M"
b100011 O
b100011 P
b100011 d
b111111100111001 #"
b111111100111001 ,"
b111111100111001 S"
b111111100111001 !"
b111111100111001 ."
b111111100111001 6"
b111111100111001 ""
b111111100111001 -"
b111111100111001 0"
b1000 }
b1000 /"
b100011 6
b100011 K
b100011 U
b100011 j
b100011 q
b111111100111001 ,
b111111100111001 <
b111111100111001 W
b111111100111001 e
b111111100111001 t
b111111100111001 *"
b1 C
b1 _
b1 g
b0 :
b0 `
10
0;
b100011 N
b100011 R
b101 8
b101 b
b11 .
b11 >
b11 c
b100011 @
b100011 [
b100011 D
b100011 i
b10010100000010000110100011 2
b10010100000010000110100011 B
b10010100000010000110100011 h
b10010100000010000110100011 l
b10010100000010000110100011 o
b10 n
b1011 w"
b1000 /
b1000 ?
b1000 k
b1000 m
1&
#160
0&
#165
b10000 P
b10000 d
b0 ="
b0 C"
0T"
1G
b100 ("
b100 4"
b100 ;"
b100 A"
b100 G"
b100 M"
b10000 O
b0 #"
b0 ,"
b0 S"
b0 !"
b0 ."
b0 6"
b0 ""
b0 -"
b0 0"
b0 }
b0 /"
b10000 M
b10000 Q
b0 ,
b0 <
b0 W
b0 e
b0 t
b0 *"
b100 6
b100 K
b100 U
b100 j
b100 q
b0 4
b0 H
b0 ^
b0 r
b0 )"
b11 C
b11 _
b11 g
1J
17
00
b11 I
b11 ]
1;
b11111111111111111111111111110100 N
b11111111111111111111111111110100 R
b1111111 E
b1111111 Z
b10101 8
b10101 b
b11111 9
b11111 a
b111 F
b111 S
b111 V
b111 Y
b110 .
b110 >
b110 c
b1101111 @
b1101111 [
b111 s
b11111111111111111111111111110100 D
b11111111111111111111111111110100 i
b11111111010111111111001101101111 2
b11111111010111111111001101101111 B
b11111111010111111111001101101111 h
b11111111010111111111001101101111 l
b11111111010111111111001101101111 o
b11 n
b1100 w"
b1100 /
b1100 ?
b1100 k
b1100 m
1&
#170
0&
#175
b111111100111001 3
b111111100111001 A
b111111100111001 &"
b10 }
b10 /"
0G
b1111 4
b1111 H
b1111 ^
b1111 r
b1111 )"
b0 C
b0 _
b0 g
0J
07
b1 :
b1 `
b1 I
b1 ]
b100001 N
b100001 R
b100001 ("
b1 4"
b1 ;"
b1 A"
b1 G"
b1 M"
b1 E
b1 Z
b1 8
b1 b
b0 9
b0 a
b10 F
b10 S
b10 V
b10 Y
b101 .
b101 >
b101 c
b11 @
b11 [
b10 s
b100001 D
b100001 i
b111111100111001 P
b111111100111001 d
b100001 6
b100001 K
b100001 U
b100001 j
b100001 q
b10000100000010001010000011 2
b10000100000010001010000011 B
b10000100000010001010000011 h
b10000100000010001010000011 l
b10000100000010001010000011 o
b1 n
b100001 O
b0 M
b0 Q
b1101 w"
b100 /
b100 ?
b100 k
b100 m
1&
#180
0&
#185
1T"
b0 3
b0 A
b0 &"
b111001 ="
b1111111 C"
b100011 ("
b11 4"
b11 ;"
b11 A"
b11 G"
b11 M"
b100011 O
b100011 P
b100011 d
b111111100111001 #"
b111111100111001 ,"
b111111100111001 S"
b111111100111001 !"
b111111100111001 ."
b111111100111001 6"
b111111100111001 ""
b111111100111001 -"
b111111100111001 0"
b1000 }
b1000 /"
b100011 6
b100011 K
b100011 U
b100011 j
b100011 q
b111111100111001 ,
b111111100111001 <
b111111100111001 W
b111111100111001 e
b111111100111001 t
b111111100111001 *"
b1 C
b1 _
b1 g
b0 :
b0 `
10
0;
b100011 N
b100011 R
b101 8
b101 b
b11 .
b11 >
b11 c
b100011 @
b100011 [
b100011 D
b100011 i
b10010100000010000110100011 2
b10010100000010000110100011 B
b10010100000010000110100011 h
b10010100000010000110100011 l
b10010100000010000110100011 o
b10 n
b1110 w"
b1000 /
b1000 ?
b1000 k
b1000 m
1&
#190
0&
