cpu/wave.vcd
$date
	Thu Nov  6 21:47:24 2025
$end
$version
	Icarus Verilog
$end
$timescale
	1s
$end
$scope module top_tb $end
$var wire 1 ! tx_data $end
$var wire 7 " seg [6:0] $end
$var wire 16 # leds_out [15:0] $end
$var wire 1 $ dp $end
$var wire 8 % an [7:0] $end
$var reg 1 & button $end
$var reg 1 ' clk $end
$var reg 1 ( rst $end
$var reg 16 ) sw [15:0] $end
$scope module top $end
$var wire 1 & button $end
$var wire 1 ' clk $end
$var wire 1 ( rst $end
$var wire 16 * sw [15:0] $end
$var wire 1 ! tx_data $end
$var wire 7 + seg [6:0] $end
$var wire 1 , reset $end
$var wire 32 - reg_data_2 [31:0] $end
$var wire 32 . reg_data_1 [31:0] $end
$var wire 5 / rd [4:0] $end
$var wire 32 0 pc [31:0] $end
$var wire 1 1 mem_write $end
$var wire 16 2 leds_out [15:0] $end
$var wire 32 3 instr [31:0] $end
$var wire 1 $ dp $end
$var wire 32 4 data_out [31:0] $end
$var wire 4 5 cs [3:0] $end
$var wire 32 6 aux [31:0] $end
$var wire 8 7 an [7:0] $end
$var wire 32 8 alu_result [31:0] $end
$var wire 1 9 Pc_src $end
$scope module ieu $end
$var wire 1 ' clk $end
$var wire 5 : rs2 [4:0] $end
$var wire 5 ; rs1 [4:0] $end
$var wire 2 < result_src [1:0] $end
$var wire 1 = reg_write $end
$var wire 32 > reg_data_2 [31:0] $end
$var wire 32 ? reg_data_1 [31:0] $end
$var wire 5 @ rd [4:0] $end
$var wire 1 9 pc_src $end
$var wire 32 A pc [31:0] $end
$var wire 7 B opcode [6:0] $end
$var wire 1 1 mem_write $end
$var wire 32 C mem_data [31:0] $end
$var wire 32 D instr [31:0] $end
$var wire 3 E imm_src [2:0] $end
$var wire 32 F imm_ext [31:0] $end
$var wire 7 G funct7 [6:0] $end
$var wire 3 H funct3 [2:0] $end
$var wire 1 I flags $end
$var wire 4 J cs [3:0] $end
$var wire 2 K alu_src [1:0] $end
$var wire 1 L alu_result_src $end
$var wire 32 M alu_result [31:0] $end
$var wire 2 N alu_control [1:0] $end
$var reg 32 O alu_src_a [31:0] $end
$var reg 32 P alu_src_b [31:0] $end
$var reg 32 Q ieu_result [31:0] $end
$var reg 32 R result [31:0] $end
$scope module alu_unit $end
$var wire 32 S a [31:0] $end
$var wire 32 T b [31:0] $end
$var wire 3 U funct3 [2:0] $end
$var wire 2 V alu_control [1:0] $end
$var reg 32 W alu_result [31:0] $end
$upscope $end
$scope module comparer $end
$var wire 3 X funct3 [2:0] $end
$var wire 32 Y r2 [31:0] $end
$var wire 32 Z r1 [31:0] $end
$var reg 1 I eq $end
$upscope $end
$scope module control $end
$var wire 1 I flags $end
$var wire 3 [ funct3 [2:0] $end
$var wire 7 \ funct7 [6:0] $end
$var wire 7 ] opcode [6:0] $end
$var reg 2 ^ alu_control [1:0] $end
$var reg 1 L alu_result_src $end
$var reg 2 _ alu_src [1:0] $end
$var reg 4 ` cs [3:0] $end
$var reg 3 a imm_src [2:0] $end
$var reg 1 1 mem_write $end
$var reg 1 9 pc_src $end
$var reg 1 = reg_write $end
$var reg 2 b result_src [1:0] $end
$upscope $end
$scope module reg_file $end
$var wire 1 ' clk $end
$var wire 5 c ra1 [4:0] $end
$var wire 5 d ra2 [4:0] $end
$var wire 5 e wa [4:0] $end
$var wire 32 f wd [31:0] $end
$var wire 1 = we $end
$var wire 32 g rd2 [31:0] $end
$var wire 32 h rd1 [31:0] $end
$upscope $end
$scope module sign_ext $end
$var wire 3 i imm_src [2:0] $end
$var wire 32 j instr [31:0] $end
$var reg 32 k imm_ext [31:0] $end
$upscope $end
$scope begin Mux_alu_src_a $end
$upscope $end
$scope begin Mux_alu_src_b $end
$upscope $end
$scope begin Mux_result $end
$upscope $end
$scope begin Mux_write_reg $end
$upscope $end
$upscope $end
$scope module ifu $end
$var wire 1 9 Pc_src $end
$var wire 32 l alu_result [31:0] $end
$var wire 1 ' clk $end
$var wire 32 m pc [31:0] $end
$var wire 1 , reset $end
$var wire 32 n instr [31:0] $end
$var reg 32 o pc_next [31:0] $end
$scope module instruction_rom $end
$var wire 8 p address [7:0] $end
$var wire 32 q data [31:0] $end
$scope begin $ivl_for_loop2 $end
$var integer 32 r i [31:0] $end
$upscope $end
$upscope $end
$scope begin Pc_update $end
$upscope $end
$upscope $end
$scope module ios $end
$var wire 32 s alu_result [31:0] $end
$var wire 1 ' clk $end
$var wire 4 t cs [3:0] $end
$var wire 3 u funct3 [2:0] $end
$var wire 1 1 mem_write $end
$var wire 32 v reg_data_2 [31:0] $end
$var wire 16 w sw [15:0] $end
$var wire 1 ! tx_data $end
$var wire 1 x write $end
$var wire 1 y w_enable_data_mem $end
$var wire 1 z tx $end
$var wire 7 { seg [6:0] $end
$var wire 1 | rx $end
$var wire 1 , rst $end
$var wire 1 } read $end
$var wire 8 ~ mem_data_3 [7:0] $end
$var wire 8 !" mem_data_2 [7:0] $end
$var wire 8 "" mem_data_1 [7:0] $end
$var wire 8 #" mem_data_0 [7:0] $end
$var wire 16 $" leds_out [15:0] $end
$var wire 5 %" io_enable [4:0] $end
$var wire 1 $ dp $end
$var wire 16 &" decoded_switches [15:0] $end
$var wire 32 '" data_uart [31:0] $end
$var wire 32 (" data_mem [31:0] $end
$var wire 16 )" data_leds [15:0] $end
$var wire 32 *" data_7seg [31:0] $end
$var wire 4 +" cs_out [3:0] $end
$var wire 8 ," an [7:0] $end
$var wire 5 -" addr_uart [4:0] $end
$var reg 32 ." data_out [31:0] $end
$var reg 32 /" mem_data_out [31:0] $end
$scope module io_controler_instance $end
$var wire 6 0" addr [5:0] $end
$var wire 4 1" cs_in [3:0] $end
$var wire 32 2" data_in [31:0] $end
$var wire 1 1 w_enable $end
$var reg 5 3" addr_uart [4:0] $end
$var reg 4 4" cs_out [3:0] $end
$var reg 32 5" data_7seg [31:0] $end
$var reg 16 6" data_leds [15:0] $end
$var reg 32 7" data_mem [31:0] $end
$var reg 32 8" data_uart [31:0] $end
$var reg 5 9" io_enable [4:0] $end
$var reg 1 } read $end
$var reg 1 | rx $end
$var reg 1 y w_enable_data_mem $end
$var reg 1 x write $end
$upscope $end
$scope module leds_instance $end
$var wire 1 ' clk $end
$var wire 16 :" data [15:0] $end
$var wire 1 ;" en $end
$var wire 16 <" leds_out [15:0] $end
$var wire 1 , rst $end
$var reg 16 =" leds_next [15:0] $end
$upscope $end
$scope module segmented_memory_instance $end
$var wire 5 >" addr [4:0] $end
$var wire 1 ' clk $end
$var wire 4 ?" cs [3:0] $end
$var wire 32 @" data [31:0] $end
$var wire 1 y mem_write $end
$var wire 8 A" mem_data_3 [7:0] $end
$var wire 8 B" mem_data_2 [7:0] $end
$var wire 8 C" mem_data_1 [7:0] $end
$var wire 8 D" mem_data_0 [7:0] $end
$scope module mem0 $end
$var wire 5 E" addr [4:0] $end
$var wire 1 ' clk $end
$var wire 1 F" cs $end
$var wire 8 G" wd [7:0] $end
$var wire 1 y we $end
$var wire 8 H" rd [7:0] $end
$var parameter 32 I" WIDTH $end
$scope begin $ivl_for_loop3 $end
$var integer 32 J" i [31:0] $end
$upscope $end
$upscope $end
$scope module mem1 $end
$var wire 5 K" addr [4:0] $end
$var wire 1 ' clk $end
$var wire 1 L" cs $end
$var wire 8 M" wd [7:0] $end
$var wire 1 y we $end
$var wire 8 N" rd [7:0] $end
$var parameter 32 O" WIDTH $end
$scope begin $ivl_for_loop3 $end
$var integer 32 P" i [31:0] $end
$upscope $end
$upscope $end
$scope module mem2 $end
$var wire 5 Q" addr [4:0] $end
$var wire 1 ' clk $end
$var wire 1 R" cs $end
$var wire 8 S" wd [7:0] $end
$var wire 1 y we $end
$var wire 8 T" rd [7:0] $end
$var parameter 32 U" WIDTH $end
$scope begin $ivl_for_loop3 $end
$var integer 32 V" i [31:0] $end
$upscope $end
$upscope $end
$scope module mem3 $end
$var wire 5 W" addr [4:0] $end
$var wire 1 ' clk $end
$var wire 1 X" cs $end
$var wire 8 Y" wd [7:0] $end
$var wire 1 y we $end
$var wire 8 Z" rd [7:0] $end
$var parameter 32 [" WIDTH $end
$scope begin $ivl_for_loop3 $end
$var integer 32 \" i [31:0] $end
$upscope $end
$upscope $end
$upscope $end
$scope module sevenseg_instance $end
$var wire 1 ' clk $end
$var wire 32 ]" digits [31:0] $end
$var wire 1 ^" en $end
$var wire 1 _" seg_refresh $end
$var wire 7 `" seg [6:0] $end
$var wire 1 , rst $end
$var wire 8 a" an [7:0] $end
$var parameter 19 b" MAX_VALUE_refresh $end
$var parameter 32 c" N_DIG $end
$var parameter 32 d" N_refresh $end
$var reg 1 $ dp $end
$scope begin decoders[0] $end
$var parameter 2 e" j $end
$scope module u_dec $end
$var wire 4 f" bin_in [3:0] $end
$var reg 7 g" seg_dec [6:0] $end
$upscope $end
$upscope $end
$scope begin decoders[1] $end
$var parameter 2 h" j $end
$scope module u_dec $end
$var wire 4 i" bin_in [3:0] $end
$var reg 7 j" seg_dec [6:0] $end
$upscope $end
$upscope $end
$scope begin decoders[2] $end
$var parameter 3 k" j $end
$scope module u_dec $end
$var wire 4 l" bin_in [3:0] $end
$var reg 7 m" seg_dec [6:0] $end
$upscope $end
$upscope $end
$scope begin decoders[3] $end
$var parameter 3 n" j $end
$scope module u_dec $end
$var wire 4 o" bin_in [3:0] $end
$var reg 7 p" seg_dec [6:0] $end
$upscope $end
$upscope $end
$scope begin decoders[4] $end
$var parameter 4 q" j $end
$scope module u_dec $end
$var wire 4 r" bin_in [3:0] $end
$var reg 7 s" seg_dec [6:0] $end
$upscope $end
$upscope $end
$scope begin decoders[5] $end
$var parameter 4 t" j $end
$scope module u_dec $end
$var wire 4 u" bin_in [3:0] $end
$var reg 7 v" seg_dec [6:0] $end
$upscope $end
$upscope $end
$scope begin decoders[6] $end
$var parameter 4 w" j $end
$scope module u_dec $end
$var wire 4 x" bin_in [3:0] $end
$var reg 7 y" seg_dec [6:0] $end
$upscope $end
$upscope $end
$scope begin decoders[7] $end
$var parameter 4 z" j $end
$scope module u_dec $end
$var wire 4 {" bin_in [3:0] $end
$var reg 7 |" seg_dec [6:0] $end
$upscope $end
$upscope $end
$scope module freq_div_refresh $end
$var wire 1 ' clk $end
$var wire 1 }" en $end
$var wire 1 _" pulse $end
$var wire 1 ~" up $end
$var wire 1 , rst_n $end
$var parameter 32 !# MAX $end
$var parameter 32 "# N $end
$var reg 19 ## count [18:0] $end
$upscope $end
$scope module u_mux $end
$var wire 1 ' clk $end
$var wire 1 _" en $end
$var wire 1 , reset $end
$var parameter 32 $# N $end
$var reg 8 %# an [7:0] $end
$var reg 8 &# dig [7:0] $end
$var reg 3 '# digit_index [2:0] $end
$var reg 7 (# seg [6:0] $end
$var reg 7 )# seg_out [6:0] $end
$upscope $end
$scope begin ALLOWED_DATA $end
$scope begin $ivl_for_loop1 $end
$var integer 32 *# i [31:0] $end
$upscope $end
$upscope $end
$scope begin DP $end
$upscope $end
$scope begin NEXT_DATA $end
$scope begin $ivl_for_loop0 $end
$var integer 32 +# i [31:0] $end
$upscope $end
$upscope $end
$upscope $end
$scope module switches_instance $end
$var wire 16 ,# decoded_switches [15:0] $end
$var wire 16 -# sw [15:0] $end
$upscope $end
$scope module uart_controler $end
$var wire 5 .# addr [4:0] $end
$var wire 1 ' clk $end
$var wire 1 /# cs $end
$var wire 1 0# rd_uart $end
$var wire 1 } read $end
$var wire 1 1# rx $end
$var wire 32 2# wr_data [31:0] $end
$var wire 1 3# wr_dvsr $end
$var wire 1 4# wr_uart $end
$var wire 1 x write $end
$var wire 1 5# tx_full $end
$var wire 1 z tx $end
$var wire 1 6# rx_empty $end
$var wire 1 , reset $end
$var wire 32 7# rd_data [31:0] $end
$var wire 8 8# r_data [7:0] $end
$var parameter 32 9# FIFO_DEPTH_BIT $end
$var reg 11 :# dvsr_reg [10:0] $end
$scope module uart_unit $end
$var wire 1 ' clk $end
$var wire 11 ;# dvsr [10:0] $end
$var wire 1 0# rd_uart $end
$var wire 1 1# rx $end
$var wire 8 <# w_data [7:0] $end
$var wire 1 4# wr_uart $end
$var wire 1 5# tx_full $end
$var wire 8 =# tx_fifo_out [7:0] $end
$var wire 1 ># tx_empty $end
$var wire 1 ?# tx_done_tick $end
$var wire 1 z tx $end
$var wire 1 @# tick $end
$var wire 1 6# rx_empty $end
$var wire 1 A# rx_done_tick $end
$var wire 8 B# rx_data_out [7:0] $end
$var wire 1 , reset $end
$var wire 8 C# r_data [7:0] $end
$var parameter 32 D# DBIT $end
$var parameter 32 E# FIFO_W $end
$var parameter 32 F# SB_TICK $end
$var reg 1 G# tx_fifo_not_empty $end
$scope module baud_gen_unit $end
$var wire 1 ' clk $end
$var wire 11 H# dvsr [10:0] $end
$var wire 1 @# tick $end
$var wire 1 , reset $end
$var wire 11 I# r_next [10:0] $end
$var reg 11 J# r_reg [10:0] $end
$upscope $end
$scope module fifo_rx_unit $end
$var wire 1 ' clk $end
$var wire 1 K# full $end
$var wire 1 0# rd $end
$var wire 1 L# wr_en $end
$var wire 1 A# wr $end
$var wire 8 M# w_data [7:0] $end
$var wire 8 N# w_addr [7:0] $end
$var wire 1 , reset $end
$var wire 8 O# r_data [7:0] $end
$var wire 8 P# r_addr [7:0] $end
$var wire 1 Q# full_tmp $end
$var wire 1 6# empty $end
$var parameter 32 R# ADDR_WIDTH $end
$var parameter 32 S# DATA_WIDTH $end
$scope module fifo_ctrl_unit $end
$var wire 1 ' clk $end
$var wire 1 0# rd $end
$var wire 8 T# w_addr [7:0] $end
$var wire 1 A# wr $end
$var wire 1 , reset $end
$var wire 8 U# r_addr [7:0] $end
$var wire 1 Q# full $end
$var wire 1 6# empty $end
$var parameter 32 V# ADDR_WIDTH $end
$var reg 1 6# empty_logic $end
$var reg 1 W# empty_next $end
$var reg 1 Q# full_logic $end
$var reg 1 X# full_next $end
$var reg 8 Y# r_ptr_logic [7:0] $end
$var reg 8 Z# r_ptr_next [7:0] $end
$var reg 8 [# r_ptr_succ [7:0] $end
$var reg 8 \# w_ptr_logic [7:0] $end
$var reg 8 ]# w_ptr_next [7:0] $end
$var reg 8 ^# w_ptr_succ [7:0] $end
$upscope $end
$scope module fifo_reg_unit $end
$var wire 1 ' clk $end
$var wire 8 _# r_addr [7:0] $end
$var wire 8 `# r_data [7:0] $end
$var wire 8 a# w_addr [7:0] $end
$var wire 1 L# wr_en $end
$var wire 8 b# w_data [7:0] $end
$var parameter 32 c# ADDR_WIDTH $end
$var parameter 32 d# DATA_WIDTH $end
$upscope $end
$upscope $end
$scope module fifo_tx_unit $end
$var wire 1 ' clk $end
$var wire 1 5# full $end
$var wire 8 e# w_data [7:0] $end
$var wire 1 4# wr $end
$var wire 1 f# wr_en $end
$var wire 8 g# w_addr [7:0] $end
$var wire 1 , reset $end
$var wire 1 ?# rd $end
$var wire 8 h# r_data [7:0] $end
$var wire 8 i# r_addr [7:0] $end
$var wire 1 j# full_tmp $end
$var wire 1 ># empty $end
$var parameter 32 k# ADDR_WIDTH $end
$var parameter 32 l# DATA_WIDTH $end
$scope module fifo_ctrl_unit $end
$var wire 1 ' clk $end
$var wire 1 ># empty $end
$var wire 8 m# w_addr [7:0] $end
$var wire 1 4# wr $end
$var wire 1 , reset $end
$var wire 1 ?# rd $end
$var wire 8 n# r_addr [7:0] $end
$var wire 1 j# full $end
$var parameter 32 o# ADDR_WIDTH $end
$var reg 1 p# empty_logic $end
$var reg 1 q# empty_next $end
$var reg 1 j# full_logic $end
$var reg 1 r# full_next $end
$var reg 8 s# r_ptr_logic [7:0] $end
$var reg 8 t# r_ptr_next [7:0] $end
$var reg 8 u# r_ptr_succ [7:0] $end
$var reg 8 v# w_ptr_logic [7:0] $end
$var reg 8 w# w_ptr_next [7:0] $end
$var reg 8 x# w_ptr_succ [7:0] $end
$upscope $end
$scope module fifo_reg_unit $end
$var wire 1 ' clk $end
$var wire 8 y# r_addr [7:0] $end
$var wire 8 z# r_data [7:0] $end
$var wire 8 {# w_addr [7:0] $end
$var wire 8 |# w_data [7:0] $end
$var wire 1 f# wr_en $end
$var parameter 32 }# ADDR_WIDTH $end
$var parameter 32 ~# DATA_WIDTH $end
$upscope $end
$upscope $end
$scope module uart_rx_unit $end
$var wire 1 ' clk $end
$var wire 8 !$ dout [7:0] $end
$var wire 1 1# rx $end
$var wire 1 @# s_tick $end
$var wire 1 , reset $end
$var parameter 32 "$ DBIT $end
$var parameter 32 #$ SB_TICK $end
$var reg 8 $$ b_next [7:0] $end
$var reg 8 %$ b_reg [7:0] $end
$var reg 3 &$ n_next [2:0] $end
$var reg 3 '$ n_reg [2:0] $end
$var reg 1 A# rx_done_tick $end
$var reg 4 ($ s_next [3:0] $end
$var reg 4 )$ s_reg [3:0] $end
$var reg 2 *$ state_next [1:0] $end
$var reg 2 +$ state_reg [1:0] $end
$upscope $end
$scope module uart_tx_unit $end
$var wire 1 ' clk $end
$var wire 8 ,$ din [7:0] $end
$var wire 1 @# s_tick $end
$var wire 1 G# tx_start $end
$var wire 1 z tx $end
$var wire 1 , reset $end
$var parameter 32 -$ DBIT $end
$var parameter 32 .$ SB_TICK $end
$var reg 8 /$ b_next [7:0] $end
$var reg 8 0$ b_reg [7:0] $end
$var reg 3 1$ n_next [2:0] $end
$var reg 3 2$ n_reg [2:0] $end
$var reg 4 3$ s_next [3:0] $end
$var reg 4 4$ s_reg [3:0] $end
$var reg 2 5$ state_next [1:0] $end
$var reg 2 6$ state_reg [1:0] $end
$var reg 1 ?# tx_done_tick $end
$var reg 1 7$ tx_next $end
$var reg 1 z tx_reg $end
$upscope $end
$upscope $end
$upscope $end
$scope begin MUX_DATA_READ $end
$upscope $end
$upscope $end
$scope module u_debouncer $end
$var wire 1 ' clk $end
$var wire 1 & noisy_in $end
$var wire 1 ( rst $end
$var wire 4 8$ sample [3:0] $end
$var wire 1 , clean_out $end
$var parameter 32 9$ SAMPLES $end
$var parameter 32 :$ WIDTH $end
$scope begin ff_chain[0] $end
$var parameter 2 ;$ i $end
$scope module ff_inst $end
$var wire 1 ' clk $end
$var wire 1 <$ d $end
$var wire 1 ( rst $end
$var parameter 32 =$ WIDTH $end
$var reg 1 >$ q $end
$upscope $end
$upscope $end
$scope begin ff_chain[1] $end
$var parameter 2 ?$ i $end
$scope module ff_inst $end
$var wire 1 ' clk $end
$var wire 1 @$ d $end
$var wire 1 ( rst $end
$var parameter 32 A$ WIDTH $end
$var reg 1 B$ q $end
$upscope $end
$upscope $end
$scope begin ff_chain[2] $end
$var parameter 3 C$ i $end
$scope module ff_inst $end
$var wire 1 ' clk $end
$var wire 1 D$ d $end
$var wire 1 ( rst $end
$var parameter 32 E$ WIDTH $end
$var reg 1 F$ q $end
$upscope $end
$upscope $end
$upscope $end
$upscope $end
$upscope $end
$enddefinitions $end
$comment Show the parameter values. $end
$dumpall
b1 E$
b10 C$
b1 A$
b1 ?$
b1 =$
b0 ;$
b1 :$
b11 9$
b10000 .$
b1000 -$
b10000 #$
b1000 "$
b1000 ~#
b1000 }#
b1000 o#
b1000 l#
b1000 k#
b1000 d#
b1000 c#
b1000 V#
b1000 S#
b1000 R#
b10000 F#
b1000 E#
b1000 D#
b1000 9#
b1000 $#
b10011 "#
b1000000000000000000 !#
b111 z"
b110 w"
b101 t"
b100 q"
b11 n"
b10 k"
b1 h"
b0 e"
b10011 d"
b1000 c"
b1000000000000000000 b"
b1000 ["
b1000 U"
b1000 O"
b1000 I"
$end
#0
$dumpvars
xF$
xD$
xB$
x@$
x>$
0<$
bx0 8$
x7$
bx 6$
b0 5$
bx 4$
bx 3$
bx 2$
bx 1$
bx 0$
bx /$
bx ,$
bx +$
b0 *$
bx )$
bx ($
bx '$
bx &$
bx %$
bx $$
bx !$
bx |#
bx {#
bx z#
bx y#
bx x#
bx w#
bx v#
bx u#
bx t#
bx s#
xr#
xq#
xp#
bx n#
bx m#
xj#
bx i#
bx h#
bx g#
0f#
bx e#
bx b#
bx a#
bx `#
bx _#
bx ^#
bx ]#
bx \#
bx [#
bx Z#
bx Y#
xX#
xW#
bx U#
bx T#
xQ#
bx P#
bx O#
bx N#
bx M#
0L#
xK#
bx J#
bx I#
bx H#
xG#
bx C#
bx B#
0A#
x@#
0?#
x>#
bx =#
bx <#
bx ;#
bx :#
bx 8#
b0xxxxxxxxxx 7#
x6#
x5#
04#
03#
bx 2#
z1#
x0#
1/#
bx .#
bx -#
bx ,#
b0 +#
b1000 *#
bx )#
bx (#
bx '#
bx &#
bx %#
bx ##
1~"
1}"
b1000000 |"
bx {"
b1000000 y"
bx x"
b1000000 v"
bx u"
b1000000 s"
bx r"
b1000000 p"
bx o"
b1000000 m"
bx l"
b1000000 j"
bx i"
b1000000 g"
bx f"
bx a"
bx `"
x_"
0^"
bx ]"
b100000 \"
b0 Z"
bx Y"
0X"
bx W"
b100000 V"
b0 T"
bx S"
0R"
bx Q"
b100000 P"
b0 N"
bx M"
0L"
bx K"
b100000 J"
b0 H"
bx G"
0F"
bx E"
b0 D"
b0 C"
b0 B"
b0 A"
bx @"
b0 ?"
bx >"
bx ="
bx <"
0;"
bx :"
b10000 9"
bx 8"
bx 7"
bx 6"
bx 5"
b0 4"
bx 3"
bx 2"
b0 1"
bx 0"
b0 /"
b0 ."
bx -"
bx ,"
b0 +"
bx *"
bx )"
bx ("
bx '"
bx &"
b10000 %"
bx $"
b0 #"
b0 ""
b0 !"
b0 ~
1}
1|
bx {
xz
0y
0x
bx w
bx v
bx u
b0 t
bx s
b100000000 r
bx q
bx p
bx o
bx n
bx m
bx l
bx k
bx j
b0 i
bx h
bx g
bx f
bx e
bx d
bx c
b0 b
b0 a
b0 `
b0 _
b0 ^
bx ]
bx \
bx [
bx Z
bx Y
bx X
bx W
b0 V
bx U
bx T
bx S
bx R
bx Q
bx P
bx O
b0 N
bx M
0L
b0 K
b0 J
0I
bx H
bx G
bx F
b0 E
bx D
b0 C
bx B
bx A
bx @
bx ?
bx >
0=
b0 <
bx ;
bx :
09
bx 8
bx 7
bx 6
b0 5
b0 4
bx 3
bx 2
01
bx 0
bx /
bx .
bx -
0,
bx +
bx *
bx )
1(
0'
0&
bx %
1$
bx #
bx "
x!
$end
#5
0@$
0D$
17$
0>$
0B$
b0 8$
0F$
b0 +$
b0 6$
1'
#7
1<$
b1 8$
1&
0(
#10
0'
#15
1@$
1!
1z
b11 8$
1>$
1'
#20
0'
#25
1D$
b111 8$
1B$
1'
#30
0'
#35
00#
0/#
b1111 R
b1111 f
b1111 0"
b1111 >"
b1111 E"
b1111 K"
b1111 Q"
b1111 W"
b1111 Q
b0 <#
b0 e#
b0 |#
b0 G"
b0 M"
b0 S"
b0 Y"
b1111 8
b1111 M
b1111 W
b1111 l
b1111 s
b0 -"
b0 3"
b0 .#
0|
0}
b0 '"
b0 8"
b0 2#
b0 *"
b0 5"
b0 ]"
b0 ("
b0 7"
b0 @"
b0 )"
b0 6"
b0 :"
b0 %"
b0 9"
b1111 P
b1111 T
b0 O
b0 S
b0 -
b0 >
b0 Y
b0 g
b0 v
b0 2"
b0 .
b0 ?
b0 Z
b0 h
1I
b1 K
b1 _
1=
b0 G
b0 \
b1111 :
b1111 d
b0 ;
b0 c
b0 H
b0 U
b0 X
b0 [
b10 /
b10 @
b10 e
b10011 B
b10011 ]
b0 u
b1111 F
b1111 k
b111100000000000100010011 3
b111100000000000100010011 D
b111100000000000100010011 j
b111100000000000100010011 n
b111100000000000100010011 q
b0 p
b0 6
b0 0
b0 A
b0 m
b0 o
1,
b1111 8$
1F$
1'
#40
0'
#45
b1 I#
b0 $$
b0 &$
b0 ($
b0 /$
b0 1$
b0 3$
1W#
0X#
b0 Z#
b0 ]#
b1 [#
b1 ^#
1q#
0r#
b0 t#
b0 w#
b1 u#
b1 x#
0_"
b11111111 %
b11111111 7
b11111111 ,"
b11111111 a"
b11111111 %#
b1111111 "
b1111111 +
b1111111 {
b1111111 `"
b1111111 )#
0@#
b0 J#
b0 B#
b0 M#
b0 b#
b0 !$
b0 %$
b0 '$
b0 )$
b0 0$
b0 2$
b0 4$
16#
0K#
0Q#
b0 P#
b0 U#
b0 Y#
b0 _#
b0 N#
b0 T#
b0 a#
b0 \#
1>#
1p#
b1xxxxxxxx 7#
05#
0j#
b0 i#
b0 n#
b0 s#
b0 y#
b0 g#
b0 m#
b0 {#
b0 v#
b110110 :#
b110110 ;#
b110110 H#
b0 ##
b11111111 &#
b1111111 (#
b0 '#
b0 #
b0 2
b0 $"
b0 <"
b0 ="
0<$
b111111100111001 &"
b111111100111001 ,#
b111111100111001 )
b111111100111001 *
b111111100111001 w
b111111100111001 -#
0,
b1110 8$
0&
1'
#50
0'
#55
1f#
0q#
b1 w#
14#
1/#
b10 -"
b10 3"
b10 .#
1x
b10000 %"
b10000 9"
b100010 R
b100010 f
0F"
0L"
0R"
0X"
b1111 <#
b1111 e#
b1111 |#
b1111 G"
b100010 0"
b10 >"
b10 E"
b10 K"
b10 Q"
b10 W"
b100010 Q
b0 +"
b0 4"
b0 ?"
0y
b1111 '"
b1111 8"
b1111 2#
b1111 *"
b1111 5"
b1111 ]"
b1111 ("
b1111 7"
b1111 @"
b1111 )"
b1111 6"
b1111 :"
b1111 -
b1111 >
b1111 Y
b1111 g
b1111 v
b1111 2"
b100010 8
b100010 M
b100010 W
b100010 l
b100010 s
0I
b1111 5
b1111 J
b1111 `
b1111 t
b1111 1"
b1 E
b1 a
b1 i
11
0=
b100010 P
b100010 T
b1 G
b1 \
b10 :
b10 d
b10 H
b10 U
b10 X
b10 [
b100011 B
b100011 ]
b10 u
b100010 F
b100010 k
b11111110 %
b11111110 7
b11111110 ,"
b11111110 a"
b11111110 %#
b1000000 "
b1000000 +
b1000000 {
b1000000 `"
b1000000 )#
b10 I#
0@$
b10001000000010000100100011 3
b10001000000010000100100011 D
b10001000000010000100100011 j
b10001000000010000100100011 n
b10001000000010000100100011 q
b1 p
b11111110 &#
b1000000 (#
b1 ##
1@#
b1 J#
b1100 8$
0>$
b1 6
b100 0
b100 A
b100 m
b100 o
1'
#60
0'
#65
0/#
0f#
04#
b1100 R
b1100 f
b0 <#
b0 e#
b0 |#
b0 G"
1I
b100 0"
b100 >"
b100 E"
b100 K"
b100 Q"
b100 W"
b1100 Q
0|
0}
b0 -"
b0 3"
b0 .#
0x
b0 '"
b0 8"
b0 2#
b0 *"
b0 5"
b0 ]"
b0 ("
b0 7"
b0 @"
b0 )"
b0 6"
b0 :"
b0 %"
b0 9"
b1100 O
b1100 S
b0 -
b0 >
b0 Y
b0 g
b0 v
b0 2"
b100 8
b100 M
b100 W
b100 l
b100 s
b0 5
b0 J
b0 `
b0 t
b0 1"
b11 E
b11 a
b11 i
1L
19
01
b11 K
b11 _
1=
b11111111111111111111111111111000 P
b11111111111111111111111111111000 T
b1111111 G
b1111111 \
b11001 :
b11001 d
b11111 ;
b11111 c
b111 H
b111 U
b111 X
b111 [
b0 /
b0 @
b0 e
b1101111 B
b1101111 ]
b111 u
b11111111111111111111111111111000 F
b11111111111111111111111111111000 k
0D$
b11 I#
b1 w#
b10 x#
b11111111100111111111000001101111 3
b11111111100111111111000001101111 D
b11111111100111111111000001101111 j
b11111111100111111111000001101111 n
b11111111100111111111000001101111 q
b10 p
b1000 8$
0B$
0@#
b10 J#
0>#
0p#
b1 g#
b1 m#
b1 {#
b1 v#
b1111 =#
b1111 h#
b1111 z#
b1111 ,$
b10 ##
b10 6
b1000 0
b1000 A
b1000 m
b1000 o
1'
#70
0'
#75
1f#
b10 w#
14#
1/#
b10 -"
b10 3"
b10 .#
1x
b10000 %"
b10000 9"
0F"
0L"
0R"
0X"
b1111 <#
b1111 e#
b1111 |#
b1111 G"
b0 +"
b0 4"
b0 ?"
0y
b1111 '"
b1111 8"
b1111 2#
b1111 *"
b1111 5"
b1111 ]"
b1111 ("
b1111 7"
b1111 @"
b1111 )"
b1111 6"
b1111 :"
b1111 -
b1111 >
b1111 Y
b1111 g
b1111 v
b1111 2"
0I
b1111 5
b1111 J
b1111 `
b1111 t
b1111 1"
b1 E
b1 a
b1 i
0L
09
11
b1 K
b1 _
0=
b100010 P
b100010 T
b100010 0"
b10 >"
b10 E"
b10 K"
b10 Q"
b10 W"
b1 G
b1 \
b10 :
b10 d
b0 ;
b0 c
b10 H
b10 U
b10 X
b10 [
b10 /
b10 @
b10 e
b100011 B
b100011 ]
b10 u
b100010 F
b100010 k
b100010 R
b100010 f
b100010 8
b100010 M
b100010 W
b100010 l
b100010 s
b100 I#
b10001000000010000100100011 3
b10001000000010000100100011 D
b10001000000010000100100011 j
b10001000000010000100100011 n
b10001000000010000100100011 q
b1 p
b100010 Q
b0 O
b0 S
b11 ##
b11 J#
b0 8$
0F$
b1 6
b100 0
b100 A
b100 m
b100 o
1'
#80
0'
