fsm_autos/wave.vcd
$date
	Tue Aug 19 19:33:31 2025
$end
$version
	Icarus Verilog
$end
$timescale
	1ps
$end
$scope module top_module_tb $end
$var wire 7 ! seg [6:0] $end
$var wire 4 " other_an [3:0] $end
$var wire 1 # dp $end
$var wire 4 $ an [3:0] $end
$var parameter 32 % N_DIG $end
$var reg 1 & button $end
$var reg 1 ' cathod $end
$var reg 1 ( clk $end
$var reg 2 ) lasers [1:0] $end
$var reg 1 * rst $end
$scope module dut $end
$var wire 1 & button $end
$var wire 1 ' cathod $end
$var wire 1 ( clk $end
$var wire 2 + lasers [1:0] $end
$var wire 1 * rst $end
$var wire 1 , seg_refresh $end
$var wire 7 - seg [6:0] $end
$var wire 4 . en_pulses [3:0] $end
$var wire 1 / debounce_rst $end
$var wire 4 0 an [3:0] $end
$var parameter 32 1 MAX_VALUE_refresh $end
$var parameter 32 2 N_DIG $end
$var parameter 32 3 N_refresh $end
$var reg 1 4 cnt_car $end
$var reg 1 5 down $end
$var reg 1 # dp $end
$var reg 3 6 nxt_state_1 [2:0] $end
$var reg 3 7 nxt_state_2 [2:0] $end
$var reg 4 8 other_an [3:0] $end
$var reg 3 9 state_1 [2:0] $end
$var reg 3 : state_2 [2:0] $end
$scope begin cnt_gen[0] $end
$var parameter 2 ; i $end
$scope begin genblk1 $end
$scope module cnt_inst $end
$var wire 1 ( clk $end
$var wire 1 4 en $end
$var wire 1 < rst_n $end
$var wire 1 = up $end
$var wire 1 > pulse $end
$var parameter 32 ? MAX $end
$var parameter 32 @ N $end
$var reg 4 A count [3:0] $end
$upscope $end
$upscope $end
$upscope $end
$scope begin cnt_gen[1] $end
$var parameter 2 B i $end
$scope begin genblk1 $end
$scope module cnt_inst $end
$var wire 1 ( clk $end
$var wire 1 C en $end
$var wire 1 D pulse $end
$var wire 1 E rst_n $end
$var wire 1 F up $end
$var parameter 32 G MAX $end
$var parameter 32 H N $end
$var reg 4 I count [3:0] $end
$upscope $end
$upscope $end
$upscope $end
$scope begin cnt_gen[2] $end
$var parameter 3 J i $end
$scope begin genblk1 $end
$scope module cnt_inst $end
$var wire 1 ( clk $end
$var wire 1 K en $end
$var wire 1 L pulse $end
$var wire 1 M rst_n $end
$var wire 1 N up $end
$var parameter 32 O MAX $end
$var parameter 32 P N $end
$var reg 4 Q count [3:0] $end
$upscope $end
$upscope $end
$upscope $end
$scope begin cnt_gen[3] $end
$var parameter 3 R i $end
$scope begin genblk1 $end
$scope module cnt_inst $end
$var wire 1 ( clk $end
$var wire 1 S en $end
$var wire 1 T pulse $end
$var wire 1 U rst_n $end
$var wire 1 V up $end
$var parameter 32 W MAX $end
$var parameter 32 X N $end
$var reg 4 Y count [3:0] $end
$upscope $end
$upscope $end
$upscope $end
$scope begin decoders[0] $end
$var parameter 2 Z j $end
$scope module u_dec $end
$var wire 4 [ bin_in [3:0] $end
$var reg 7 \ seg_dec [6:0] $end
$upscope $end
$upscope $end
$scope begin decoders[1] $end
$var parameter 2 ] j $end
$scope module u_dec $end
$var wire 4 ^ bin_in [3:0] $end
$var reg 7 _ seg_dec [6:0] $end
$upscope $end
$upscope $end
$scope begin decoders[2] $end
$var parameter 3 ` j $end
$scope module u_dec $end
$var wire 4 a bin_in [3:0] $end
$var reg 7 b seg_dec [6:0] $end
$upscope $end
$upscope $end
$scope begin decoders[3] $end
$var parameter 3 c j $end
$scope module u_dec $end
$var wire 4 d bin_in [3:0] $end
$var reg 7 e seg_dec [6:0] $end
$upscope $end
$upscope $end
$scope module freq_div_refresh $end
$var wire 1 ( clk $end
$var wire 1 f en $end
$var wire 1 , pulse $end
$var wire 1 g rst_n $end
$var wire 1 h up $end
$var parameter 32 i MAX $end
$var parameter 32 j N $end
$var reg 3 k count [2:0] $end
$upscope $end
$scope module u_debouncer $end
$var wire 1 ( clk $end
$var wire 1 & noisy_in $end
$var wire 1 * rst $end
$var wire 6 l sample [5:0] $end
$var wire 1 / clean_out $end
$var parameter 32 m SAMPLES $end
$var parameter 32 n WIDTH $end
$scope begin ff_chain[0] $end
$var parameter 2 o i $end
$scope module ff_inst $end
$var wire 1 ( clk $end
$var wire 1 p d $end
$var wire 1 * rst $end
$var parameter 32 q WIDTH $end
$var reg 1 r q $end
$upscope $end
$upscope $end
$scope begin ff_chain[1] $end
$var parameter 2 s i $end
$scope module ff_inst $end
$var wire 1 ( clk $end
$var wire 1 t d $end
$var wire 1 * rst $end
$var parameter 32 u WIDTH $end
$var reg 1 v q $end
$upscope $end
$upscope $end
$scope begin ff_chain[2] $end
$var parameter 3 w i $end
$scope module ff_inst $end
$var wire 1 ( clk $end
$var wire 1 x d $end
$var wire 1 * rst $end
$var parameter 32 y WIDTH $end
$var reg 1 z q $end
$upscope $end
$upscope $end
$scope begin ff_chain[3] $end
$var parameter 3 { i $end
$scope module ff_inst $end
$var wire 1 ( clk $end
$var wire 1 | d $end
$var wire 1 * rst $end
$var parameter 32 } WIDTH $end
$var reg 1 ~ q $end
$upscope $end
$upscope $end
$scope begin ff_chain[4] $end
$var parameter 4 !" i $end
$scope module ff_inst $end
$var wire 1 ( clk $end
$var wire 1 "" d $end
$var wire 1 * rst $end
$var parameter 32 #" WIDTH $end
$var reg 1 $" q $end
$upscope $end
$upscope $end
$upscope $end
$scope module u_mux $end
$var wire 1 %" cathod $end
$var wire 1 ( clk $end
$var wire 1 , en $end
$var wire 1 &" reset $end
$var parameter 32 '" N $end
$var reg 4 (" an [3:0] $end
$var reg 4 )" dig [3:0] $end
$var reg 2 *" digit_index [1:0] $end
$var reg 7 +" seg [6:0] $end
$var reg 7 ," seg_out [6:0] $end
$upscope $end
$upscope $end
$upscope $end
$enddefinitions $end
$comment Show the parameter values. $end
$dumpall
b100 '"
b1 #"
b100 !"
b1 }
b11 {
b1 y
b10 w
b1 u
b1 s
b1 q
b0 o
b1 n
b101 m
b11 j
b10 i
b11 c
b10 `
b1 ]
b0 Z
b100 X
b1001 W
b11 R
b100 P
b1001 O
b10 J
b100 H
b1001 G
b1 B
b100 @
b1001 ?
b0 ;
b11 3
b100 2
b10 1
b100 %
$end
#0
$dumpvars
bx ,"
bx +"
bx *"
bx )"
bx ("
x&"
z%"
x$"
x""
x~
x|
xz
xx
xv
xt
xr
xp
bx l
bx k
1h
xg
1f
b0 e
bx d
b0 b
bx a
b0 _
bx ^
b0 \
bx [
bx Y
1V
xU
xT
xS
bx Q
1N
xM
xL
xK
bx I
1F
xE
xD
xC
bx A
x>
x=
x<
bx :
bx 9
b1111 8
b0 7
b0 6
x5
x4
bx 0
x/
bx .
bx -
x,
b0 +
0*
b0 )
0(
0'
x&
bx $
1#
b1111 "
bx !
$end
#5000
0T
0S
0L
0K
0D
0C
b0 .
0>
0t
0x
0|
0""
1=
05
04
0r
0v
0z
0~
1U
1M
1E
1<
1&"
1g
0/
b0x l
0$"
b0 :
b0 9
1(
#10000
0(
#15000
1(
#20000
0(
#25000
xt
b0xx l
xr
1*
1(
#30000
0(
#35000
xx
b0xxx l
xv
1(
#40000
0(
#45000
x|
b0xxxx l
xz
1(
#50000
0(
#55000
x""
b0xxxxx l
x~
1(
#60000
1p
b0xxxx1 l
1&
0(
#62000
0p
b0xxxx0 l
0&
#65000
0t
0r
bx00 l
x$"
1(
#69000
1p
bx01 l
1&
#70000
0p
bx00 l
0&
0(
#75000
0x
0v
1p
bx001 l
1&
1(
#77000
0p
bx000 l
0&
#80000
0(
#84000
1p
bx001 l
1&
#85000
1t
0|
1r
0z
0p
bx0010 l
0&
1(
#90000
1p
bx0011 l
1&
0(
#92000
0p
bx0010 l
0&
#95000
0""
1x
0t
0~
1v
bx00100 l
0r
1(
#99000
1p
bx00101 l
1&
#100000
bx00101 l
1&
0(
#105000
1t
0x
1|
1r
0v
1z
b1011 l
0$"
1(
#110000
0(
#115000
1""
0|
1x
1~
0z
b10111 l
1v
1(
#120000
0(
#125000
1|
0""
1z
0~
b101111 l
1$"
1(
#130000
0(
#135000
1""
0$"
1U
1M
1E
1<
1&"
1g
0/
b11111 l
1~
1(
#140000
0(
#145000
0U
0M
0E
0<
0&"
0g
1/
b111111 l
1$"
1(
#150000
0(
#155000
b1111 $
b1111 0
b1111 ("
b0 !
b0 -
b0 ,"
0,
b111111 e
b111111 b
b111111 _
b111111 \
b1111 )"
b1111111 +"
b0 *"
b0 k
b0 Y
b0 d
b0 Q
b0 a
b0 I
b0 ^
b0 A
b0 [
1(
#160000
0(
#165000
1(
#170000
0(
#175000
1(
#180000
0(
#185000
1(
#190000
0(
#195000
1(
#200000
0(
#205000
1(
#210000
0(
#215000
1(
#220000
0(
#225000
1(
#230000
0(
#235000
1(
#240000
0(
#245000
1(
#250000
0(
#255000
1(
#260000
0(
#265000
1(
#270000
0(
#275000
1(
#280000
0(
#285000
1(
#290000
0(
#295000
b1 6
0p
b1 )
b1 +
1U
1M
1E
1<
1&"
1g
0/
b111110 l
0&
1(
#300000
0(
#305000
0t
b1110 $
b1110 0
b1110 ("
b1000000 !
b1000000 -
b1000000 ,"
b111100 l
0r
b1 k
b1110 )"
b111111 +"
b1 9
1(
#310000
0(
#315000
1,
0x
b10 k
b111000 l
0v
1(
#320000
0(
#325000
0|
0,
b110000 l
0z
b0 k
b1 *"
b10 6
b11 )
b11 +
1(
#330000
0(
#335000
b1101 $
b1101 0
b1101 ("
0""
b10 9
b1101 )"
b1 k
b100000 l
0~
1(
#340000
0(
#345000
1,
b0 l
0$"
b10 k
1(
#350000
0(
#355000
0,
b10 *"
b0 k
b11 7
b11 6
b10 )
b10 +
1(
#360000
0(
#365000
b1011 $
b1011 0
b1011 ("
b1 k
b1011 )"
b11 :
b11 9
1(
#370000
0(
#375000
1,
b10 k
1(
#380000
0(
#385000
0,
b0 k
b11 *"
b0 7
b100 6
b0 )
b0 +
1(
#390000
0(
#395000
14
b0 6
b111 $
b111 0
b111 ("
b0 :
b100 9
b111 )"
b1 k
1(
#400000
0(
#405000
b110 \
1,
04
b1 A
b1 [
b10 k
b0 9
1(
#410000
0(
#415000
0,
b0 *"
b0 k
b1 6
b1 )
b1 +
1(
#420000
0(
#425000
b1110 $
b1110 0
b1110 ("
b1111001 !
b1111001 -
b1111001 ,"
b1 k
b1110 )"
b110 +"
b1 9
1(
#430000
0(
#435000
1,
b10 k
1(
#440000
0(
#445000
0,
b0 k
b1 *"
b10 6
b11 )
b11 +
1(
#450000
0(
#455000
b1101 $
b1101 0
b1101 ("
b1000000 !
b1000000 -
b1000000 ,"
b10 9
b1101 )"
b111111 +"
b1 k
1(
#460000
0(
#465000
1,
b10 k
1(
#470000
0(
#475000
0,
b10 *"
b0 k
b11 7
b11 6
b10 )
b10 +
1(
#480000
0(
#485000
b1011 $
b1011 0
b1011 ("
b1 k
b1011 )"
b11 :
b11 9
1(
#490000
0(
#495000
1,
b10 k
1(
#500000
0(
#505000
0,
b0 k
b11 *"
b0 7
b100 6
b0 )
b0 +
1(
#510000
0(
#515000
14
b0 6
b111 $
b111 0
b111 ("
b0 :
b100 9
b111 )"
b1 k
1(
#520000
0(
#525000
b1011011 \
1,
04
b10 A
b10 [
b10 k
b0 9
1(
#530000
0(
#535000
0,
b0 *"
b0 k
b1 6
b1 )
b1 +
1(
#540000
0(
#545000
b1110 $
b1110 0
b1110 ("
b100100 !
b100100 -
b100100 ,"
b1 k
b1110 )"
b1011011 +"
b1 9
1(
#550000
0(
#555000
1,
b10 k
1(
#560000
0(
#565000
0,
b0 k
b1 *"
b10 6
b11 )
b11 +
1(
#570000
0(
#575000
b1101 $
b1101 0
b1101 ("
b1000000 !
b1000000 -
b1000000 ,"
b10 9
b1101 )"
b111111 +"
b1 k
1(
#580000
0(
#585000
1,
b10 k
1(
#590000
0(
#595000
0,
b10 *"
b0 k
b11 7
b11 6
b10 )
b10 +
1(
#600000
0(
#605000
b1011 $
b1011 0
b1011 ("
b1 k
b1011 )"
b11 :
b11 9
1(
#610000
0(
#615000
1,
b10 k
1(
#620000
0(
#625000
0,
b0 k
b11 *"
b0 7
b100 6
b0 )
b0 +
1(
#630000
0(
#635000
14
b0 6
b111 $
b111 0
b111 ("
b0 :
b100 9
b111 )"
b1 k
1(
#640000
0(
#645000
b1001111 \
1,
04
b11 A
b11 [
b10 k
b0 9
1(
#650000
0(
#655000
0,
b0 *"
b0 k
b1 6
b1 )
b1 +
1(
#660000
0(
#665000
b1110 $
b1110 0
b1110 ("
b110000 !
b110000 -
b110000 ,"
b1 k
b1110 )"
b1001111 +"
b1 9
1(
#670000
0(
#675000
1,
b10 k
1(
#680000
0(
#685000
0,
b0 k
b1 *"
b10 6
b11 )
b11 +
1(
#690000
0(
#695000
b1101 $
b1101 0
b1101 ("
b1000000 !
b1000000 -
b1000000 ,"
b10 9
b1101 )"
b111111 +"
b1 k
1(
#700000
0(
#705000
1,
b10 k
1(
#710000
0(
#715000
0,
b10 *"
b0 k
b11 7
b11 6
b10 )
b10 +
1(
#720000
0(
#725000
b1011 $
b1011 0
b1011 ("
b1 k
b1011 )"
b11 :
b11 9
1(
#730000
0(
#735000
1,
b10 k
1(
#740000
0(
#745000
0,
b0 k
b11 *"
b0 7
b100 6
b0 )
b0 +
1(
#750000
0(
#755000
14
b0 6
b111 $
b111 0
b111 ("
b0 :
b100 9
b111 )"
b1 k
1(
#760000
0(
#765000
b1100110 \
1,
04
b100 A
b100 [
b10 k
b0 9
1(
#770000
0(
#775000
0,
b0 *"
b0 k
b1 6
b1 )
b1 +
1(
#780000
0(
#785000
b1110 $
b1110 0
b1110 ("
b11001 !
b11001 -
b11001 ,"
b1 k
b1110 )"
b1100110 +"
b1 9
1(
#790000
0(
#795000
1,
b10 k
1(
#800000
0(
#805000
0,
b0 k
b1 *"
b10 6
b11 )
b11 +
1(
#810000
0(
#815000
b1101 $
b1101 0
b1101 ("
b1000000 !
b1000000 -
b1000000 ,"
b10 9
b1101 )"
b111111 +"
b1 k
1(
#820000
0(
#825000
1,
b10 k
1(
#830000
0(
#835000
0,
b10 *"
b0 k
b11 7
b11 6
b10 )
b10 +
1(
#840000
0(
#845000
b1011 $
b1011 0
b1011 ("
b1 k
b1011 )"
b11 :
b11 9
1(
#850000
0(
#855000
1,
b10 k
1(
#860000
0(
#865000
0,
b0 k
b11 *"
b0 7
b100 6
b0 )
b0 +
1(
#870000
0(
#875000
14
b0 6
b111 $
b111 0
b111 ("
b0 :
b100 9
b111 )"
b1 k
1(
#880000
0(
#885000
b1101101 \
1,
04
b101 A
b101 [
b10 k
b0 9
1(
#890000
0(
#895000
0,
b0 *"
b0 k
1(
#900000
0(
#905000
b1110 $
b1110 0
b1110 ("
b10010 !
b10010 -
b10010 ,"
b1 k
b1110 )"
b1101101 +"
1(
#910000
0(
#915000
1,
b10 k
1(
#920000
0(
#925000
0,
b0 k
b1 *"
1(
#930000
0(
#935000
b1101 $
b1101 0
b1101 ("
b1000000 !
b1000000 -
b1000000 ,"
b1101 )"
b111111 +"
b1 k
1(
#940000
0(
#945000
1,
b10 k
1(
#950000
0(
#955000
0,
b10 *"
b0 k
1(
#960000
0(
#965000
b1011 $
b1011 0
b1011 ("
b1 k
b1011 )"
1(
#970000
0(
#975000
1,
b10 k
1(
#980000
0(
#985000
0,
b0 k
b11 *"
1(
#990000
0(
#995000
b111 $
b111 0
b111 ("
b111 )"
b1 k
b11 7
b10 )
b10 +
1(
#1000000
0(
#1005000
1,
b10 k
b11 :
1(
#1010000
0(
#1015000
0,
b0 *"
b0 k
1(
#1020000
0(
#1025000
b1110 $
b1110 0
b1110 ("
b10010 !
b10010 -
b10010 ,"
b1 k
b1110 )"
b1101101 +"
b10 7
b1 6
b11 )
b11 +
1(
#1030000
0(
#1035000
b10 6
1,
b10 :
b1 9
b10 k
1(
#1040000
0(
#1045000
0,
b0 k
b1 *"
b10 9
1(
#1050000
0(
#1055000
b1101 $
b1101 0
b1101 ("
b1000000 !
b1000000 -
b1000000 ,"
b1101 )"
b111111 +"
b1 k
b1 7
b1 6
b1 )
b1 +
1(
#1060000
0(
#1065000
1,
b10 k
b1 :
b1 9
1(
#1070000
0(
#1075000
0,
b10 *"
b0 k
1(
#1080000
0(
#1085000
b1011 $
b1011 0
b1011 ("
b1 k
b1011 )"
b100 7
b0 6
b0 )
b0 +
1(
#1090000
0(
#1095000
b0 7
0=
15
14
1,
b100 :
b0 9
b10 k
1(
#1100000
0(
#1105000
b1100110 \
0,
1=
05
04
b100 A
b100 [
b0 k
b11 *"
b0 :
1(
#1110000
0(
#1115000
b111 $
b111 0
b111 ("
b111 )"
b1 k
b11 7
b10 )
b10 +
1(
#1120000
0(
#1125000
1,
b10 k
b11 :
1(
#1130000
0(
#1135000
0,
b0 *"
b0 k
1(
#1140000
0(
#1145000
b1110 $
b1110 0
b1110 ("
b11001 !
b11001 -
b11001 ,"
b1 k
b1110 )"
b1100110 +"
b10 7
b1 6
b11 )
b11 +
1(
#1150000
0(
#1155000
b10 6
1,
b10 :
b1 9
b10 k
1(
#1160000
0(
#1165000
0,
b0 k
b1 *"
b10 9
1(
#1170000
0(
#1175000
b1101 $
b1101 0
b1101 ("
b1000000 !
b1000000 -
b1000000 ,"
b1101 )"
b111111 +"
b1 k
b1 7
b1 6
b1 )
b1 +
1(
#1180000
0(
#1185000
1,
b10 k
b1 :
b1 9
1(
#1190000
0(
#1195000
0,
b10 *"
b0 k
1(
#1200000
0(
#1205000
b1011 $
b1011 0
b1011 ("
b1 k
b1011 )"
b100 7
b0 6
b0 )
b0 +
1(
#1210000
0(
#1215000
b0 7
0=
15
14
1,
b100 :
b0 9
b10 k
1(
#1220000
0(
#1225000
b1001111 \
0,
1=
05
04
b11 A
b11 [
b0 k
b11 *"
b0 :
1(
#1230000
0(
#1235000
b111 $
b111 0
b111 ("
b111 )"
b1 k
b11 7
b10 )
b10 +
1(
#1240000
0(
#1245000
1,
b10 k
b11 :
1(
#1250000
0(
#1255000
0,
b0 *"
b0 k
1(
#1260000
0(
#1265000
b1110 $
b1110 0
b1110 ("
b110000 !
b110000 -
b110000 ,"
b1 k
b1110 )"
b1001111 +"
b10 7
b1 6
b11 )
b11 +
1(
#1270000
0(
#1275000
b10 6
1,
b10 :
b1 9
b10 k
1(
#1280000
0(
#1285000
0,
b0 k
b1 *"
b10 9
1(
#1290000
0(
#1295000
b1101 $
b1101 0
b1101 ("
b1000000 !
b1000000 -
b1000000 ,"
b1101 )"
b111111 +"
b1 k
b1 7
b1 6
b1 )
b1 +
1(
#1300000
0(
#1305000
1,
b10 k
b1 :
b1 9
1(
#1310000
0(
#1315000
0,
b10 *"
b0 k
1(
#1320000
0(
#1325000
b1011 $
b1011 0
b1011 ("
b1 k
b1011 )"
b100 7
b0 6
b0 )
b0 +
1(
#1330000
0(
#1335000
b0 7
0=
15
14
1,
b100 :
b0 9
b10 k
1(
#1340000
0(
#1345000
b1011011 \
0,
1=
05
04
b10 A
b10 [
b0 k
b11 *"
b0 :
1(
#1350000
0(
#1355000
b111 $
b111 0
b111 ("
b111 )"
b1 k
1(
#1360000
0(
#1365000
1,
b10 k
1(
#1370000
0(
#1375000
0,
b0 *"
b0 k
1(
#1380000
0(
#1385000
b1110 $
b1110 0
b1110 ("
b100100 !
b100100 -
b100100 ,"
b1 k
b1110 )"
b1011011 +"
1(
#1390000
0(
#1395000
1,
b10 k
1(
#1400000
0(
#1405000
0,
b0 k
b1 *"
1(
#1410000
0(
#1415000
b1101 $
b1101 0
b1101 ("
b1000000 !
b1000000 -
b1000000 ,"
b1101 )"
b111111 +"
b1 k
1(
#1420000
0(
#1425000
1,
b10 k
1(
#1430000
0(
#1435000
0,
b10 *"
b0 k
1(
#1440000
0(
#1445000
b1011 $
b1011 0
b1011 ("
b1 k
b1011 )"
1(
#1450000
0(
#1455000
1,
b10 k
1(
