fsm_autos/wave.vcd
$date
	Thu Aug 14 20:10:22 2025
$end
$version
	Icarus Verilog
$end
$timescale
	1ps
$end
$scope module top_module_tb $end
$var wire 7 ! seg [6:0] $end
$var wire 2 " an [1:0] $end
$var reg 1 # cathod $end
$var reg 1 $ clk $end
$var reg 2 % lasers [1:0] $end
$var reg 1 & rst $end
$scope module dut $end
$var wire 1 # cathod $end
$var wire 1 $ clk $end
$var wire 2 ' lasers [1:0] $end
$var wire 1 & rst $end
$var wire 7 ( units_seg [6:0] $end
$var wire 4 ) units [3:0] $end
$var wire 7 * tens_seg [6:0] $end
$var wire 4 + tens [3:0] $end
$var wire 1 , seg_refresh $end
$var wire 7 - seg [6:0] $end
$var wire 2 . an [1:0] $end
$var parameter 4 / MAX_VALUE_cnt $end
$var parameter 3 0 MAX_VALUE_refresh $end
$var parameter 32 1 N_cnt $end
$var parameter 32 2 N_refresh $end
$var reg 1 3 cnt_car $end
$var reg 1 4 down $end
$var reg 1 5 dp $end
$var reg 2 6 nxt_state_1 [1:0] $end
$var reg 2 7 nxt_state_2 [1:0] $end
$var reg 6 8 other_an [5:0] $end
$var reg 2 9 state_1 [1:0] $end
$var reg 2 : state_2 [1:0] $end
$scope module freq_div_refresh $end
$var wire 1 $ clk $end
$var wire 1 ; en $end
$var wire 1 , pulse $end
$var wire 1 & rst_n $end
$var wire 1 < up $end
$var parameter 32 = MAX $end
$var parameter 32 > N $end
$var reg 3 ? count [2:0] $end
$upscope $end
$scope module u_counter $end
$var wire 1 $ clk $end
$var wire 1 3 en $end
$var wire 1 & rst $end
$var wire 1 @ up $end
$var wire 4 A units [3:0] $end
$var wire 4 B tens [3:0] $end
$var wire 1 C tc_units $end
$scope module cnt1 $end
$var wire 1 $ clk $end
$var wire 1 3 en $end
$var wire 1 & rst_n $end
$var wire 1 @ up $end
$var wire 1 C pulse $end
$var parameter 32 D MAX $end
$var parameter 32 E N $end
$var reg 4 F count [3:0] $end
$upscope $end
$scope module cnt2 $end
$var wire 1 $ clk $end
$var wire 1 C en $end
$var wire 1 & rst_n $end
$var wire 1 @ up $end
$var wire 1 G pulse $end
$var parameter 32 H MAX $end
$var parameter 32 I N $end
$var reg 4 J count [3:0] $end
$upscope $end
$upscope $end
$scope module u_dec_tens $end
$var wire 4 K bin_in [3:0] $end
$var reg 7 L seg_out [6:0] $end
$upscope $end
$scope module u_dec_units $end
$var wire 4 M bin_in [3:0] $end
$var reg 7 N seg_out [6:0] $end
$upscope $end
$scope module u_mux $end
$var wire 1 # cathod $end
$var wire 1 $ clk $end
$var wire 1 , en $end
$var wire 1 & rst $end
$var wire 7 O tens_seg [6:0] $end
$var wire 7 P units_seg [6:0] $end
$var reg 2 Q an [1:0] $end
$var reg 7 R raw_seg [6:0] $end
$var reg 7 S seg_out [6:0] $end
$var reg 1 T sel_digit $end
$upscope $end
$upscope $end
$upscope $end
$enddefinitions $end
$comment Show the parameter values. $end
$dumpall
b100 I
b1001 H
b100 E
b1001 D
b11 >
b10 =
b11 2
b100 1
b10 0
b1000 /
$end
#0
$dumpvars
xT
b1111111 S
b0 R
b1 Q
b0 P
b0 O
b0 N
bx M
b0 L
bx K
bx J
xG
bx F
xC
bx B
bx A
x@
bx ?
1<
1;
bx :
bx 9
b111111 8
b0 7
b0 6
15
x4
x3
b1 .
b1111111 -
x,
bx +
b0 *
bx )
b0 (
b0 '
0&
b0 %
0$
0#
b1 "
b1111111 !
$end
#5000
b1000000 !
b1000000 -
b1000000 S
0G
b111111 R
0,
b111111 (
b111111 N
b111111 P
b111111 *
b111111 L
b111111 O
b10 "
b10 .
b10 Q
0C
b0 ?
b0 )
b0 A
b0 F
b0 M
b0 +
b0 B
b0 J
b0 K
1T
1@
04
03
b0 :
b0 9
1$
#10000
0$
#15000
1$
#20000
0$
#25000
b1 ?
1&
1$
#30000
0$
#35000
1,
b10 ?
1$
#40000
0$
#45000
0,
b1 "
b1 .
b1 Q
b0 ?
0T
1$
#50000
0$
#55000
b1 ?
b1 6
b1 %
b1 '
1$
#60000
0$
#65000
1,
b10 ?
b1 9
1$
#70000
0$
#75000
b10 "
b10 .
b10 Q
0,
1T
b0 ?
1$
#80000
0$
#85000
b1 ?
b1 7
b10 6
b11 %
b11 '
1$
#90000
0$
#95000
b10 7
1,
b1 :
b10 9
b10 ?
1$
#100000
0$
#105000
0,
b1 "
b1 .
b1 Q
b0 ?
0T
b10 :
1$
#110000
0$
#115000
b1 ?
b1 7
b11 6
b10 %
b10 '
1$
#120000
0$
#125000
1,
b0 6
b10 ?
b1 :
b11 9
1$
#130000
0$
#135000
b10 "
b10 .
b10 Q
0,
b0 9
13
1T
b0 ?
1$
#140000
0$
#145000
b1111001 !
b1111001 -
b1111001 S
b110 R
b110 (
b110 N
b110 P
b1 ?
b1 )
b1 A
b1 F
b1 M
03
b0 7
b0 %
b0 '
1$
#150000
0$
#155000
1,
b0 :
b10 ?
1$
#160000
0$
#165000
b1000000 !
b1000000 -
b1000000 S
0,
b111111 R
b1 "
b1 .
b1 Q
b0 ?
0T
1$
#170000
0$
#175000
b1 ?
b1 6
b1 %
b1 '
1$
#180000
0$
#185000
1,
b10 ?
b1 9
1$
#190000
0$
#195000
b1111001 !
b1111001 -
b1111001 S
b110 R
b10 "
b10 .
b10 Q
0,
1T
b0 ?
1$
#200000
0$
#205000
b1 ?
b1 7
b10 6
b11 %
b11 '
1$
#210000
0$
#215000
b10 7
1,
b1 :
b10 9
b10 ?
1$
#220000
0$
#225000
b1000000 !
b1000000 -
b1000000 S
0,
b111111 R
b1 "
b1 .
b1 Q
b0 ?
0T
b10 :
1$
#230000
0$
#235000
b1 ?
b1 7
b11 6
b10 %
b10 '
1$
#240000
0$
#245000
1,
b0 6
b10 ?
b1 :
b11 9
1$
#250000
0$
#255000
b1111001 !
b1111001 -
b1111001 S
b110 R
b10 "
b10 .
b10 Q
0,
b0 9
13
1T
b0 ?
1$
#260000
0$
#265000
b100100 !
b100100 -
b100100 S
b1011011 R
b1011011 (
b1011011 N
b1011011 P
b1 ?
b10 )
b10 A
b10 F
b10 M
03
b0 7
b0 %
b0 '
1$
#270000
0$
#275000
1,
b0 :
b10 ?
1$
#280000
0$
#285000
b1000000 !
b1000000 -
b1000000 S
0,
b111111 R
b1 "
b1 .
b1 Q
b0 ?
0T
1$
#290000
0$
#295000
b1 ?
b1 6
b1 %
b1 '
1$
#300000
0$
#305000
1,
b10 ?
b1 9
1$
#310000
0$
#315000
b100100 !
b100100 -
b100100 S
b1011011 R
b10 "
b10 .
b10 Q
0,
1T
b0 ?
1$
#320000
0$
#325000
b1 ?
b1 7
b10 6
b11 %
b11 '
1$
#330000
0$
#335000
b10 7
1,
b1 :
b10 9
b10 ?
1$
#340000
0$
#345000
b1000000 !
b1000000 -
b1000000 S
0,
b111111 R
b1 "
b1 .
b1 Q
b0 ?
0T
b10 :
1$
#350000
0$
#355000
b1 ?
b1 7
b11 6
b10 %
b10 '
1$
#360000
0$
#365000
1,
b0 6
b10 ?
b1 :
b11 9
1$
#370000
0$
#375000
b100100 !
b100100 -
b100100 S
b1011011 R
b10 "
b10 .
b10 Q
0,
b0 9
13
1T
b0 ?
1$
#380000
0$
#385000
b110000 !
b110000 -
b110000 S
b1001111 R
b1001111 (
b1001111 N
b1001111 P
b1 ?
b11 )
b11 A
b11 F
b11 M
03
b0 7
b0 %
b0 '
1$
#390000
0$
#395000
1,
b0 :
b10 ?
1$
#400000
0$
#405000
b1000000 !
b1000000 -
b1000000 S
0,
b111111 R
b1 "
b1 .
b1 Q
b0 ?
0T
1$
#410000
0$
#415000
b1 ?
b1 6
b1 %
b1 '
1$
#420000
0$
#425000
1,
b10 ?
b1 9
1$
#430000
0$
#435000
b110000 !
b110000 -
b110000 S
b1001111 R
b10 "
b10 .
b10 Q
0,
1T
b0 ?
1$
#440000
0$
#445000
b1 ?
b1 7
b10 6
b11 %
b11 '
1$
#450000
0$
#455000
b10 7
1,
b1 :
b10 9
b10 ?
1$
#460000
0$
#465000
b1000000 !
b1000000 -
b1000000 S
0,
b111111 R
b1 "
b1 .
b1 Q
b0 ?
0T
b10 :
1$
#470000
0$
#475000
b1 ?
b1 7
b11 6
b10 %
b10 '
1$
#480000
0$
#485000
1,
b0 6
b10 ?
b1 :
b11 9
1$
#490000
0$
#495000
b110000 !
b110000 -
b110000 S
b1001111 R
b10 "
b10 .
b10 Q
0,
b0 9
13
1T
b0 ?
1$
#500000
0$
#505000
b11001 !
b11001 -
b11001 S
b1100110 R
b1100110 (
b1100110 N
b1100110 P
b1 ?
b100 )
b100 A
b100 F
b100 M
03
b0 7
b0 %
b0 '
1$
#510000
0$
#515000
1,
b0 :
b10 ?
1$
#520000
0$
#525000
b1000000 !
b1000000 -
b1000000 S
0,
b111111 R
b1 "
b1 .
b1 Q
b0 ?
0T
1$
#530000
0$
#535000
b1 ?
b1 6
b1 %
b1 '
1$
#540000
0$
#545000
1,
b10 ?
b1 9
1$
#550000
0$
#555000
b11001 !
b11001 -
b11001 S
b1100110 R
b10 "
b10 .
b10 Q
0,
1T
b0 ?
1$
#560000
0$
#565000
b1 ?
b1 7
b10 6
b11 %
b11 '
1$
#570000
0$
#575000
b10 7
1,
b1 :
b10 9
b10 ?
1$
#580000
0$
#585000
b1000000 !
b1000000 -
b1000000 S
0,
b111111 R
b1 "
b1 .
b1 Q
b0 ?
0T
b10 :
1$
#590000
0$
#595000
b1 ?
b1 7
b11 6
b10 %
b10 '
1$
#600000
0$
#605000
1,
b0 6
b10 ?
b1 :
b11 9
1$
#610000
0$
#615000
b11001 !
b11001 -
b11001 S
b1100110 R
b10 "
b10 .
b10 Q
0,
b0 9
13
1T
b0 ?
1$
#620000
0$
#625000
b10010 !
b10010 -
b10010 S
b1101101 R
b1101101 (
b1101101 N
b1101101 P
b1 ?
b101 )
b101 A
b101 F
b101 M
03
b0 7
b0 %
b0 '
1$
#630000
0$
#635000
1,
b0 :
b10 ?
1$
#640000
0$
#645000
b1000000 !
b1000000 -
b1000000 S
0,
b111111 R
b1 "
b1 .
b1 Q
b0 ?
0T
1$
#650000
0$
#655000
b1 ?
1$
#660000
0$
#665000
1,
b10 ?
1$
#670000
0$
#675000
b10010 !
b10010 -
b10010 S
b1101101 R
b10 "
b10 .
b10 Q
0,
1T
b0 ?
1$
#680000
0$
#685000
b1 ?
1$
#690000
0$
#695000
1,
b10 ?
1$
#700000
0$
#705000
b1000000 !
b1000000 -
b1000000 S
0,
b111111 R
b1 "
b1 .
b1 Q
b0 ?
0T
1$
#710000
0$
#715000
b1 ?
1$
#720000
0$
#725000
1,
b10 ?
1$
#730000
0$
#735000
b10010 !
b10010 -
b10010 S
b1101101 R
b10 "
b10 .
b10 Q
0,
1T
b0 ?
1$
#740000
0$
#745000
b1 ?
1$
#750000
0$
#755000
1,
b10 ?
b1 7
b10 %
b10 '
1$
#760000
0$
#765000
b1000000 !
b1000000 -
b1000000 S
0,
b111111 R
b1 "
b1 .
b1 Q
b0 ?
0T
b1 :
1$
#770000
0$
#775000
b1 ?
1$
#780000
0$
#785000
1,
b10 ?
b10 7
b1 6
b11 %
b11 '
1$
#790000
0$
#795000
b10010 !
b10010 -
b10010 S
b10 6
b1101101 R
b10 "
b10 .
b10 Q
0,
b10 :
b1 9
1T
b0 ?
1$
#800000
0$
#805000
b1 ?
b10 9
1$
#810000
0$
#815000
1,
b10 ?
b11 7
b1 6
b1 %
b1 '
1$
#820000
0$
#825000
b1000000 !
b1000000 -
b1000000 S
0,
b111111 R
b1 "
b1 .
b1 Q
b0 7
b0 ?
0T
b11 :
b1 9
1$
#830000
0$
#835000
b0 :
0@
14
13
b1 ?
1$
#840000
0$
#845000
1,
b1100110 (
b1100110 N
b1100110 P
b10 ?
b100 )
b100 A
b100 F
b100 M
1@
04
03
b0 6
b0 %
b0 '
1$
#850000
0$
#855000
b11001 !
b11001 -
b11001 S
b1100110 R
b10 "
b10 .
b10 Q
0,
b0 9
1T
b0 ?
1$
#860000
0$
#865000
b1 ?
1$
#870000
0$
#875000
1,
b10 ?
b1 7
b10 %
b10 '
1$
#880000
0$
#885000
b1000000 !
b1000000 -
b1000000 S
0,
b111111 R
b1 "
b1 .
b1 Q
b0 ?
0T
b1 :
1$
#890000
0$
#895000
b1 ?
1$
#900000
0$
#905000
1,
b10 ?
b10 7
b1 6
b11 %
b11 '
1$
#910000
0$
#915000
b11001 !
b11001 -
b11001 S
b10 6
b1100110 R
b10 "
b10 .
b10 Q
0,
b10 :
b1 9
1T
b0 ?
1$
#920000
0$
#925000
b1 ?
b10 9
1$
#930000
0$
#935000
1,
b10 ?
b11 7
b1 6
b1 %
b1 '
1$
#940000
0$
#945000
b1000000 !
b1000000 -
b1000000 S
0,
b111111 R
b1 "
b1 .
b1 Q
b0 7
b0 ?
0T
b11 :
b1 9
1$
#950000
0$
#955000
b0 :
0@
14
13
b1 ?
1$
#960000
0$
#965000
1,
b1001111 (
b1001111 N
b1001111 P
b10 ?
b11 )
b11 A
b11 F
b11 M
1@
04
03
b0 6
b0 %
b0 '
1$
#970000
0$
#975000
b110000 !
b110000 -
b110000 S
b1001111 R
b10 "
b10 .
b10 Q
0,
b0 9
1T
b0 ?
1$
#980000
0$
#985000
b1 ?
1$
#990000
0$
#995000
1,
b10 ?
b1 7
b10 %
b10 '
1$
#1000000
0$
#1005000
b1000000 !
b1000000 -
b1000000 S
0,
b111111 R
b1 "
b1 .
b1 Q
b0 ?
0T
b1 :
1$
#1010000
0$
#1015000
b1 ?
1$
#1020000
0$
#1025000
1,
b10 ?
b10 7
b1 6
b11 %
b11 '
1$
#1030000
0$
#1035000
b110000 !
b110000 -
b110000 S
b10 6
b1001111 R
b10 "
b10 .
b10 Q
0,
b10 :
b1 9
1T
b0 ?
1$
#1040000
0$
#1045000
b1 ?
b10 9
1$
#1050000
0$
#1055000
1,
b10 ?
b11 7
b1 6
b1 %
b1 '
1$
#1060000
0$
#1065000
b1000000 !
b1000000 -
b1000000 S
0,
b111111 R
b1 "
b1 .
b1 Q
b0 7
b0 ?
0T
b11 :
b1 9
1$
#1070000
0$
#1075000
b0 :
0@
14
13
b1 ?
1$
#1080000
0$
#1085000
1,
b1011011 (
b1011011 N
b1011011 P
b10 ?
b10 )
b10 A
b10 F
b10 M
1@
04
03
b0 6
b0 %
b0 '
1$
#1090000
0$
#1095000
b100100 !
b100100 -
b100100 S
b1011011 R
b10 "
b10 .
b10 Q
0,
b0 9
1T
b0 ?
1$
#1100000
0$
#1105000
b1 ?
1$
#1110000
0$
#1115000
1,
b10 ?
1$
#1120000
0$
#1125000
b1000000 !
b1000000 -
b1000000 S
0,
b111111 R
b1 "
b1 .
b1 Q
b0 ?
0T
1$
#1130000
0$
#1135000
b1 ?
1$
#1140000
0$
#1145000
1,
b10 ?
1$
#1150000
0$
#1155000
b100100 !
b100100 -
b100100 S
b1011011 R
b10 "
b10 .
b10 Q
0,
1T
b0 ?
1$
#1160000
0$
#1165000
b1 ?
1$
#1170000
0$
#1175000
1,
b10 ?
1$
#1180000
0$
#1185000
b1000000 !
b1000000 -
b1000000 S
0,
b111111 R
b1 "
b1 .
b1 Q
b0 ?
0T
1$
#1190000
0$
#1195000
b1 ?
1$
#1200000
0$
#1205000
1,
b10 ?
1$
#1210000
0$
#1215000
b100100 !
b100100 -
b100100 S
b1011011 R
b10 "
b10 .
b10 Q
0,
1T
b0 ?
1$
