fsm_autos/wave.vcd
$date
	Fri Aug 15 20:54:01 2025
$end
$version
	Icarus Verilog
$end
$timescale
	1ps
$end
$scope module top_module_tb $end
$var wire 7 ! seg [6:0] $end
$var wire 6 " other_an [5:0] $end
$var wire 1 # dp $end
$var wire 2 $ an [1:0] $end
$var reg 1 % button $end
$var reg 1 & cathod $end
$var reg 1 ' clk $end
$var reg 2 ( lasers [1:0] $end
$var reg 1 ) rst $end
$scope module dut $end
$var wire 1 % button $end
$var wire 1 & cathod $end
$var wire 1 ' clk $end
$var wire 2 * lasers [1:0] $end
$var wire 1 ) rst $end
$var wire 7 + units_seg [6:0] $end
$var wire 4 , units [3:0] $end
$var wire 7 - tens_seg [6:0] $end
$var wire 4 . tens [3:0] $end
$var wire 1 / seg_refresh $end
$var wire 7 0 seg [6:0] $end
$var wire 1 1 debounce_rst $end
$var wire 2 2 an [1:0] $end
$var parameter 4 3 MAX_VALUE_cnt $end
$var parameter 21 4 MAX_VALUE_refresh $end
$var parameter 32 5 N_cnt $end
$var parameter 32 6 N_refresh $end
$var reg 1 7 cnt_car $end
$var reg 1 8 down $end
$var reg 1 # dp $end
$var reg 3 9 nxt_state_1 [2:0] $end
$var reg 3 : nxt_state_2 [2:0] $end
$var reg 6 ; other_an [5:0] $end
$var reg 3 < state_1 [2:0] $end
$var reg 3 = state_2 [2:0] $end
$scope module freq_div_refresh $end
$var wire 1 ' clk $end
$var wire 1 > en $end
$var wire 1 / pulse $end
$var wire 1 ? rst_n $end
$var wire 1 @ up $end
$var parameter 32 A MAX $end
$var parameter 32 B N $end
$var reg 21 C count [20:0] $end
$upscope $end
$scope module u_counter $end
$var wire 1 ' clk $end
$var wire 1 7 en $end
$var wire 1 D rst $end
$var wire 1 E up $end
$var wire 4 F units [3:0] $end
$var wire 4 G tens [3:0] $end
$var wire 1 H tc_units $end
$scope module cnt1 $end
$var wire 1 ' clk $end
$var wire 1 7 en $end
$var wire 1 D rst_n $end
$var wire 1 E up $end
$var wire 1 H pulse $end
$var parameter 32 I MAX $end
$var parameter 32 J N $end
$var reg 4 K count [3:0] $end
$upscope $end
$scope module cnt2 $end
$var wire 1 ' clk $end
$var wire 1 H en $end
$var wire 1 D rst_n $end
$var wire 1 E up $end
$var wire 1 L pulse $end
$var parameter 32 M MAX $end
$var parameter 32 N N $end
$var reg 4 O count [3:0] $end
$upscope $end
$upscope $end
$scope module u_debouncer $end
$var wire 1 ' clk $end
$var wire 1 % noisy_in $end
$var wire 1 ) rst $end
$var wire 11 P sample [10:0] $end
$var wire 1 1 clean_out $end
$var parameter 32 Q SAMPLES $end
$var parameter 32 R WIDTH $end
$scope begin ff_chain[0] $end
$var parameter 2 S i $end
$scope module ff_inst $end
$var wire 1 ' clk $end
$var wire 1 T d $end
$var wire 1 ) rst $end
$var parameter 32 U WIDTH $end
$var reg 1 V q $end
$upscope $end
$upscope $end
$scope begin ff_chain[1] $end
$var parameter 2 W i $end
$scope module ff_inst $end
$var wire 1 ' clk $end
$var wire 1 X d $end
$var wire 1 ) rst $end
$var parameter 32 Y WIDTH $end
$var reg 1 Z q $end
$upscope $end
$upscope $end
$scope begin ff_chain[2] $end
$var parameter 3 [ i $end
$scope module ff_inst $end
$var wire 1 ' clk $end
$var wire 1 \ d $end
$var wire 1 ) rst $end
$var parameter 32 ] WIDTH $end
$var reg 1 ^ q $end
$upscope $end
$upscope $end
$scope begin ff_chain[3] $end
$var parameter 3 _ i $end
$scope module ff_inst $end
$var wire 1 ' clk $end
$var wire 1 ` d $end
$var wire 1 ) rst $end
$var parameter 32 a WIDTH $end
$var reg 1 b q $end
$upscope $end
$upscope $end
$scope begin ff_chain[4] $end
$var parameter 4 c i $end
$scope module ff_inst $end
$var wire 1 ' clk $end
$var wire 1 d d $end
$var wire 1 ) rst $end
$var parameter 32 e WIDTH $end
$var reg 1 f q $end
$upscope $end
$upscope $end
$scope begin ff_chain[5] $end
$var parameter 4 g i $end
$scope module ff_inst $end
$var wire 1 ' clk $end
$var wire 1 h d $end
$var wire 1 ) rst $end
$var parameter 32 i WIDTH $end
$var reg 1 j q $end
$upscope $end
$upscope $end
$scope begin ff_chain[6] $end
$var parameter 4 k i $end
$scope module ff_inst $end
$var wire 1 ' clk $end
$var wire 1 l d $end
$var wire 1 ) rst $end
$var parameter 32 m WIDTH $end
$var reg 1 n q $end
$upscope $end
$upscope $end
$scope begin ff_chain[7] $end
$var parameter 4 o i $end
$scope module ff_inst $end
$var wire 1 ' clk $end
$var wire 1 p d $end
$var wire 1 ) rst $end
$var parameter 32 q WIDTH $end
$var reg 1 r q $end
$upscope $end
$upscope $end
$scope begin ff_chain[8] $end
$var parameter 5 s i $end
$scope module ff_inst $end
$var wire 1 ' clk $end
$var wire 1 t d $end
$var wire 1 ) rst $end
$var parameter 32 u WIDTH $end
$var reg 1 v q $end
$upscope $end
$upscope $end
$scope begin ff_chain[9] $end
$var parameter 5 w i $end
$scope module ff_inst $end
$var wire 1 ' clk $end
$var wire 1 x d $end
$var wire 1 ) rst $end
$var parameter 32 y WIDTH $end
$var reg 1 z q $end
$upscope $end
$upscope $end
$upscope $end
$scope module u_dec_tens $end
$var wire 4 { bin_in [3:0] $end
$var reg 7 | seg_out [6:0] $end
$upscope $end
$scope module u_dec_units $end
$var wire 4 } bin_in [3:0] $end
$var reg 7 ~ seg_out [6:0] $end
$upscope $end
$scope module u_mux $end
$var wire 1 & cathod $end
$var wire 1 ' clk $end
$var wire 1 / en $end
$var wire 1 ) rst $end
$var wire 7 !" tens_seg [6:0] $end
$var wire 7 "" units_seg [6:0] $end
$var reg 2 #" an [1:0] $end
$var reg 7 $" raw_seg [6:0] $end
$var reg 7 %" seg_out [6:0] $end
$var reg 1 &" sel_digit $end
$upscope $end
$upscope $end
$upscope $end
$enddefinitions $end
$comment Show the parameter values. $end
$dumpall
b1 y
b1001 w
b1 u
b1000 s
b1 q
b111 o
b1 m
b110 k
b1 i
b101 g
b1 e
b100 c
b1 a
b11 _
b1 ]
b10 [
b1 Y
b1 W
b1 U
b0 S
b1 R
b1010 Q
b100 N
b1001 M
b100 J
b1001 I
b10101 B
b100000000000000000000 A
b10101 6
b100 5
b100000000000000000000 4
b1000 3
$end
#0
$dumpvars
x&"
b1111111 %"
b0 $"
b1 #"
b0 ""
b0 !"
b0 ~
bx }
b0 |
bx {
xz
xx
xv
xt
xr
xp
xn
xl
xj
xh
xf
xd
xb
x`
x^
x\
xZ
xX
xV
xT
bx P
bx O
xL
bx K
xH
bx G
bx F
xE
xD
bx C
1@
x?
1>
bx =
bx <
b111111 ;
b0 :
b0 9
x8
x7
b1 2
x1
b1111111 0
x/
bx .
b0 -
bx ,
b0 +
b0 *
0)
b0 (
0'
0&
x%
b1 $
1#
b111111 "
b1111111 !
$end
#5000
0L
0H
0X
0\
0`
0d
0h
0l
0p
0t
0x
b10 $
b10 2
b10 #"
1E
08
07
0V
0Z
0^
0b
0f
0j
0n
0r
0v
1D
1?
01
b0x P
0z
1&"
b0 =
b0 <
1'
#10000
0'
#15000
1'
#20000
0'
#25000
xX
b0xx P
xV
1)
1'
#30000
0'
#35000
x\
b0xxx P
xZ
1'
#40000
0'
#45000
x`
b0xxxx P
x^
1'
#50000
0'
#55000
xd
b0xxxxx P
xb
1'
#60000
1T
b0xxxx1 P
1%
0'
#62000
0T
b0xxxx0 P
0%
#65000
0X
xh
0V
b0xxxx00 P
xf
1'
#69000
1T
b0xxxx01 P
1%
#70000
0T
b0xxxx00 P
0%
0'
#75000
xl
0\
xj
0Z
1T
b0xxxx001 P
1%
1'
#77000
0T
b0xxxx000 P
0%
#80000
0'
#84000
1T
b0xxxx001 P
1%
#85000
1X
0`
xp
1V
0^
xn
0T
b0xxxx0010 P
0%
1'
#90000
1T
b0xxxx0011 P
1%
0'
#92000
0T
b0xxxx0010 P
0%
#95000
xt
0d
1\
0X
xr
0b
1Z
b0xxxx00100 P
0V
1'
#99000
1T
b0xxxx00101 P
1%
#100000
b0xxxx00101 P
1%
0'
#105000
1X
0\
1`
0h
xx
1V
0Z
1^
0f
b0xxxx001011 P
xv
1'
#110000
0'
#115000
0l
1d
0`
1\
xz
0j
1b
0^
bx0010111 P
1Z
1'
#120000
0'
#125000
1`
0d
1h
0p
1^
0b
1f
bx00101111 P
0n
1'
#130000
0'
#135000
0t
1l
0h
1d
0r
1j
0f
bx001011111 P
1b
1'
#140000
0'
#145000
1h
0l
1p
0x
1f
0j
1n
bx0010111111 P
0v
1'
#150000
0'
#155000
1t
0p
1l
0z
1r
0n
b101111111 P
1j
1'
#160000
0'
#165000
1p
0t
1x
1n
0r
b1011111111 P
1v
1'
#170000
0'
#175000
0x
1t
1z
0v
b10111111111 P
1r
1'
#180000
0'
#185000
1x
1v
b1111111111 P
0z
1'
#190000
0'
#195000
0D
0?
11
b11111111111 P
1z
1'
#200000
0'
#205000
b1000000 !
b1000000 0
b1000000 %"
b111111 $"
0/
b111111 +
b111111 ~
b111111 ""
b111111 -
b111111 |
b111111 !"
b0 C
b0 ,
b0 F
b0 K
b0 }
b0 .
b0 G
b0 O
b0 {
1'
#210000
0'
#215000
1'
#220000
0'
#225000
1'
#230000
0'
#235000
1'
#240000
0'
#245000
1'
#250000
0'
#255000
1'
#260000
0'
#265000
1'
#270000
0'
#275000
1'
#280000
0'
#285000
1'
#290000
0'
#295000
b1 9
0T
b1 (
b1 *
1D
1?
01
b11111111110 P
0%
1'
#300000
0'
#305000
0X
b11111111100 P
0V
b1 C
b1 <
1'
#310000
0'
#315000
0\
b10 C
b11111111000 P
0Z
1'
#320000
0'
#325000
0`
b11111110000 P
0^
b11 C
b10 9
b11 (
b11 *
1'
#330000
0'
#335000
0d
b10 <
b100 C
b11111100000 P
0b
1'
#340000
0'
#345000
0h
b11111000000 P
0f
b101 C
1'
#350000
0'
#355000
0l
b110 C
b11110000000 P
0j
b11 :
b11 9
b10 (
b10 *
1'
#360000
0'
#365000
0p
b11100000000 P
0n
b111 C
b11 =
b11 <
1'
#370000
0'
#375000
0t
b1000 C
b11000000000 P
0r
1'
#380000
0'
#385000
0x
b10000000000 P
0v
b1001 C
b0 :
b100 9
b0 (
b0 *
1'
#390000
0'
#395000
17
b0 9
b0 =
b100 <
b1010 C
b0 P
0z
1'
#400000
0'
#405000
b1111001 !
b1111001 0
b1111001 %"
b110 $"
b110 +
b110 ~
b110 ""
07
b1011 C
b1 ,
b1 F
b1 K
b1 }
b0 <
1'
#410000
0'
#415000
b1100 C
b1 9
b1 (
b1 *
1'
#420000
0'
#425000
b1101 C
b1 <
1'
#430000
0'
#435000
b1110 C
1'
#440000
0'
#445000
b1111 C
b10 9
b11 (
b11 *
1'
#450000
0'
#455000
b10 <
b10000 C
1'
#460000
0'
#465000
b10001 C
1'
#470000
0'
#475000
b10010 C
b11 :
b11 9
b10 (
b10 *
1'
#480000
0'
#485000
b10011 C
b11 =
b11 <
1'
#490000
0'
#495000
b10100 C
1'
#500000
0'
#505000
b10101 C
b0 :
b100 9
b0 (
b0 *
1'
#510000
0'
#515000
17
b0 9
b0 =
b100 <
b10110 C
1'
#520000
0'
#525000
b100100 !
b100100 0
b100100 %"
b1011011 $"
b1011011 +
b1011011 ~
b1011011 ""
07
b10111 C
b10 ,
b10 F
b10 K
b10 }
b0 <
1'
#530000
0'
#535000
b11000 C
b1 9
b1 (
b1 *
1'
#540000
0'
#545000
b11001 C
b1 <
1'
#550000
0'
#555000
b11010 C
1'
#560000
0'
#565000
b11011 C
b10 9
b11 (
b11 *
1'
#570000
0'
#575000
b10 <
b11100 C
1'
#580000
0'
#585000
b11101 C
1'
#590000
0'
#595000
b11110 C
b11 :
b11 9
b10 (
b10 *
1'
#600000
0'
#605000
b11111 C
b11 =
b11 <
1'
#610000
0'
#615000
b100000 C
1'
#620000
0'
#625000
b100001 C
b0 :
b100 9
b0 (
b0 *
1'
#630000
0'
#635000
17
b0 9
b0 =
b100 <
b100010 C
1'
#640000
0'
#645000
b110000 !
b110000 0
b110000 %"
b1001111 $"
b1001111 +
b1001111 ~
b1001111 ""
07
b100011 C
b11 ,
b11 F
b11 K
b11 }
b0 <
1'
#650000
0'
#655000
b100100 C
b1 9
b1 (
b1 *
1'
#660000
0'
#665000
b100101 C
b1 <
1'
#670000
0'
#675000
b100110 C
1'
#680000
0'
#685000
b100111 C
b10 9
b11 (
b11 *
1'
#690000
0'
#695000
b10 <
b101000 C
1'
#700000
0'
#705000
b101001 C
1'
#710000
0'
#715000
b101010 C
b11 :
b11 9
b10 (
b10 *
1'
#720000
0'
#725000
b101011 C
b11 =
b11 <
1'
#730000
0'
#735000
b101100 C
1'
#740000
0'
#745000
b101101 C
b0 :
b100 9
b0 (
b0 *
1'
#750000
0'
#755000
17
b0 9
b0 =
b100 <
b101110 C
1'
#760000
0'
#765000
b11001 !
b11001 0
b11001 %"
b1100110 $"
b1100110 +
b1100110 ~
b1100110 ""
07
b101111 C
b100 ,
b100 F
b100 K
b100 }
b0 <
1'
#770000
0'
#775000
b110000 C
b1 9
b1 (
b1 *
1'
#780000
0'
#785000
b110001 C
b1 <
1'
#790000
0'
#795000
b110010 C
1'
#800000
0'
#805000
b110011 C
b10 9
b11 (
b11 *
1'
#810000
0'
#815000
b10 <
b110100 C
1'
#820000
0'
#825000
b110101 C
1'
#830000
0'
#835000
b110110 C
b11 :
b11 9
b10 (
b10 *
1'
#840000
0'
#845000
b110111 C
b11 =
b11 <
1'
#850000
0'
#855000
b111000 C
1'
#860000
0'
#865000
b111001 C
b0 :
b100 9
b0 (
b0 *
1'
#870000
0'
#875000
17
b0 9
b0 =
b100 <
b111010 C
1'
#880000
0'
#885000
b10010 !
b10010 0
b10010 %"
b1101101 $"
b1101101 +
b1101101 ~
b1101101 ""
07
b111011 C
b101 ,
b101 F
b101 K
b101 }
b0 <
1'
#890000
0'
#895000
b111100 C
1'
#900000
0'
#905000
b111101 C
1'
#910000
0'
#915000
b111110 C
1'
#920000
0'
#925000
b111111 C
1'
#930000
0'
#935000
b1000000 C
1'
#940000
0'
#945000
b1000001 C
1'
#950000
0'
#955000
b1000010 C
1'
#960000
0'
#965000
b1000011 C
1'
#970000
0'
#975000
b1000100 C
1'
#980000
0'
#985000
b1000101 C
1'
#990000
0'
#995000
b1000110 C
b11 :
b10 (
b10 *
1'
#1000000
0'
#1005000
b1000111 C
b11 =
1'
#1010000
0'
#1015000
b1001000 C
1'
#1020000
0'
#1025000
b1001001 C
b10 :
b1 9
b11 (
b11 *
1'
#1030000
0'
#1035000
b10 9
b10 =
b1 <
b1001010 C
1'
#1040000
0'
#1045000
b1001011 C
b10 <
1'
#1050000
0'
#1055000
b1001100 C
b1 :
b1 9
b1 (
b1 *
1'
#1060000
0'
#1065000
b1001101 C
b1 =
b1 <
1'
#1070000
0'
#1075000
b1001110 C
1'
#1080000
0'
#1085000
b1001111 C
b100 :
b0 9
b0 (
b0 *
1'
#1090000
0'
#1095000
b0 :
0E
18
17
b100 =
b0 <
b1010000 C
1'
#1100000
0'
#1105000
b11001 !
b11001 0
b11001 %"
b1100110 $"
b1100110 +
b1100110 ~
b1100110 ""
1E
08
07
b1010001 C
b100 ,
b100 F
b100 K
b100 }
b0 =
1'
#1110000
0'
#1115000
b1010010 C
b11 :
b10 (
b10 *
1'
#1120000
0'
#1125000
b1010011 C
b11 =
1'
#1130000
0'
#1135000
b1010100 C
1'
#1140000
0'
#1145000
b1010101 C
b10 :
b1 9
b11 (
b11 *
1'
#1150000
0'
#1155000
b10 9
b10 =
b1 <
b1010110 C
1'
#1160000
0'
#1165000
b1010111 C
b10 <
1'
#1170000
0'
#1175000
b1011000 C
b1 :
b1 9
b1 (
b1 *
1'
#1180000
0'
#1185000
b1011001 C
b1 =
b1 <
1'
#1190000
0'
#1195000
b1011010 C
1'
#1200000
0'
#1205000
b1011011 C
b100 :
b0 9
b0 (
b0 *
1'
#1210000
0'
#1215000
b0 :
0E
18
17
b100 =
b0 <
b1011100 C
1'
#1220000
0'
#1225000
b110000 !
b110000 0
b110000 %"
b1001111 $"
b1001111 +
b1001111 ~
b1001111 ""
1E
08
07
b1011101 C
b11 ,
b11 F
b11 K
b11 }
b0 =
1'
#1230000
0'
#1235000
b1011110 C
b11 :
b10 (
b10 *
1'
#1240000
0'
#1245000
b1011111 C
b11 =
1'
#1250000
0'
#1255000
b1100000 C
1'
#1260000
0'
#1265000
b1100001 C
b10 :
b1 9
b11 (
b11 *
1'
#1270000
0'
#1275000
b10 9
b10 =
b1 <
b1100010 C
1'
#1280000
0'
#1285000
b1100011 C
b10 <
1'
#1290000
0'
#1295000
b1100100 C
b1 :
b1 9
b1 (
b1 *
1'
#1300000
0'
#1305000
b1100101 C
b1 =
b1 <
1'
#1310000
0'
#1315000
b1100110 C
1'
#1320000
0'
#1325000
b1100111 C
b100 :
b0 9
b0 (
b0 *
1'
#1330000
0'
#1335000
b0 :
0E
18
17
b100 =
b0 <
b1101000 C
1'
#1340000
0'
#1345000
b100100 !
b100100 0
b100100 %"
b1011011 $"
b1011011 +
b1011011 ~
b1011011 ""
1E
08
07
b1101001 C
b10 ,
b10 F
b10 K
b10 }
b0 =
1'
#1350000
0'
#1355000
b1101010 C
1'
#1360000
0'
#1365000
b1101011 C
1'
#1370000
0'
#1375000
b1101100 C
1'
#1380000
0'
#1385000
b1101101 C
1'
#1390000
0'
#1395000
b1101110 C
1'
#1400000
0'
#1405000
b1101111 C
1'
#1410000
0'
#1415000
b1110000 C
1'
#1420000
0'
#1425000
b1110001 C
1'
#1430000
0'
#1435000
b1110010 C
1'
#1440000
0'
#1445000
b1110011 C
1'
#1450000
0'
#1455000
b1110100 C
1'
